image_url
http://uploads3.wikipaintings.org/images/luc-tuymans/leopard-2000.jpg
http://uploads8.wikipaintings.org/images/david-burliuk/rural-landscape.jpg
http://uploads3.wikipaintings.org/images/maurice-utrillo/street-mont-cenis.jpg
http://uploads1.wikipaintings.org/images/boris-kustodiev/russian-girl-near-the-window-1923.jpg
http://uploads0.wikipaintings.org/images/ligia-macovei/unknown-title-11.jpg
http://uploads8.wikipaintings.org/images/pyotr-konchalovsky/portrait-of-a-girl-sima-1940.jpg
http://uploads5.wikipaintings.org/images/alfred-sisley/the-path-from-saint-mammes-morning-1890.jpg
http://uploads1.wikipaintings.org/images/robert-julian-onderdonk/bluebonnet-scene.jpg
http://uploads7.wikipaintings.org/images/robert-julian-onderdonk/bluebonnets-at-late-afternoon-near-la-grange-1918.jpg
http://uploads5.wikipaintings.org/images/isidore-isou/les-nombres-xxxii-1952.jpg
http://uploads6.wikipaintings.org/images/eugene-boudin/a-beach-scene.jpg
http://uploads7.wikipaintings.org/images/friedel-dzubas/gtw-fd-6-1987.jpg
http://uploads1.wikipaintings.org/images/nicolae-tonitza/unknown-title-4.jpg
http://uploads4.wikipaintings.org/images/luigi-guardigli/unknown-title-1960.jpg
http://uploads3.wikipaintings.org/images/gustave-moreau/diomedes-devoured-by-his-horses-1866.jpg
http://uploads7.wikipaintings.org/images/esteban-vicente/diptych-1987.jpg
http://uploads3.wikipaintings.org/images/amedeo-modigliani/a-blond-wearing-earrings.jpg
http://uploads3.wikipaintings.org/images/juan-gris/guitar-and-fruit-dish-1.jpg
http://uploads5.wikipaintings.org/images/pyotr-konchalovsky/portrait-of-a-historian-v-s-protopopov-1911.jpg
http://uploads2.wikipaintings.org/images/ellsworth-kelly/blue-green-black-red-1971.jpg
http://uploads5.wikipaintings.org/images/horia-damian/the-philosopher-2-2004.jpg
http://uploads5.wikipaintings.org/images/antoine-watteau/portrait-of-a-gentleman-1720.jpg
http://uploads5.wikipaintings.org/images/maurice-esteve/l-toile-polaire-1954.jpg
http://uploads4.wikipaintings.org/images/raoul-dufy/boats-at-martigues-1908.jpg
http://uploads3.wikipaintings.org/images/georges-braque/guitar-and-sheet-music-on-table-1918.jpg
http://uploads8.wikipaintings.org/images/camille-corot/the-piper-at-lake-albano.jpg
http://uploads6.wikipaintings.org/images/jack-bush/stripped-to-the-right-1965.jpg
http://uploads3.wikipaintings.org/images/hans-holbein-the-younger/portrait-of-a-lady-thought-to-be-anne-boleyn.jpg
http://uploads7.wikipaintings.org/images/le-pho/les-pommeirs-du-japon.jpg
http://uploads3.wikipaintings.org/images/hans-holbein-the-younger/studies-of-the-hands-of-erasmus-of-rotterdam.jpg
http://uploads4.wikipaintings.org/images/james-tissot/a-declaration-of-love.jpg
http://uploads8.wikipaintings.org/images/jean-baptiste-simeon-chardin/a-chemist-in-his-laboratory-a-philosopher-giving-a-lecture-1734.jpg
http://uploads2.wikipaintings.org/images/katsushika-hokusai/street-scenes-newly-pubished-11.jpg
http://uploads1.wikipaintings.org/images/mario-sironi/the-plane.jpg
http://uploads5.wikipaintings.org/images/constant-troyon/unloading-the-ferry.jpg
http://uploads5.wikipaintings.org/images/konstantin-korovin/russia-nostalgia.jpg
http://uploads2.wikipaintings.org/images/aurelie-nemours/rythme-du-millim-tre-1976.jpg
http://uploads4.wikipaintings.org/images/koshiro-onchi/diving-1932.jpg
http://uploads0.wikipaintings.org/images/brett-whiteley/st-remy-de-provence-1983.jpg
http://uploads7.wikipaintings.org/images/martin-schongauer/bust-of-a-monk-assisting-at-communion.jpg
http://uploads7.wikipaintings.org/images/giovanni-battista-piranesi/the-roman-antiquities-t-3-plate-xii-view-of-the-family-tomb-of-plautius-on-the-road-leading.jpg
http://uploads7.wikipaintings.org/images/edward-lear/a-view-of-santa-maura-levkas-ionian-islands.jpg
http://uploads7.wikipaintings.org/images/yamamura-toyonari/matsumoto-koshiro-vii-as-sekibei-1919.jpg
http://uploads4.wikipaintings.org/images/mark-tobey/edge-of-august.jpg
http://uploads6.wikipaintings.org/images/julio-resende/untitled-1954.jpg
http://uploads3.wikipaintings.org/images/jan-matejko/henry-valois.jpg
http://uploads4.wikipaintings.org/images/paul-cezanne/sea-at-l-estaque-1885.jpg
http://uploads3.wikipaintings.org/images/jean-hey/portrait-of-charles-ii-of-bourbon.jpg
http://uploads7.wikipaintings.org/images/john-lewis-krimmel/sunday-morning-in-front-of-the-arch-street-meeting-house-in-philadelphia.jpg
http://uploads7.wikipaintings.org/images/rembrandt/esau-selling-his-birthright-to-jacob.jpg
http://uploads4.wikipaintings.org/images/henri-rousseau/the-representatives-of-foreign-powers-coming-to-salute-the-republic-as-a-sign-of-peace-1907.jpg
http://uploads5.wikipaintings.org/images/martiros-saryan/illustration-1934-1.jpg
http://farm4.staticflickr.com/3675/10733412676_3851b9282f.jpg
http://farm8.staticflickr.com/7454/12183797434_f14b3827bf.jpg
http://farm8.staticflickr.com/7351/12377816593_9ce7fa5813.jpg
http://farm8.staticflickr.com/7379/10073581385_dc501a8482.jpg
http://farm4.staticflickr.com/3491/3456653175_ecd97b3eca.jpg
http://farm4.staticflickr.com/3199/13093879935_476315e81b.jpg
http://farm4.staticflickr.com/3824/13111282543_7496d01f29.jpg
http://farm8.staticflickr.com/7310/12071999203_5d7a364faf.jpg
http://farm8.staticflickr.com/7455/9682356058_0685804d11.jpg
http://farm6.staticflickr.com/5528/12603302004_e6a2814a5d.jpg
http://farm4.staticflickr.com/3736/12597148823_a382de6ac2.jpg
http://farm3.staticflickr.com/2855/9596457314_7ca026885d.jpg
http://farm6.staticflickr.com/5526/12624322663_87b4f4589f.jpg
http://farm6.staticflickr.com/5542/9592483658_a45c951c06.jpg
http://farm3.staticflickr.com/2814/12523946884_13803e1222.jpg
http://farm3.staticflickr.com/2881/9501425125_2b4830e642.jpg
http://farm4.staticflickr.com/3723/10802651835_9e63ca6dba.jpg
http://farm3.staticflickr.com/2825/11314012666_1bab5b6232.jpg
http://farm3.staticflickr.com/2831/9757160071_e80a13e7f0.jpg
http://farm4.staticflickr.com/3803/12737931774_a5f0edbbff.jpg
