

Experiment started at :  Wed Oct 18 22:55:51 IST 2017 

$ python -W ignore CNN_Master.py --cuda --datapath /media/koustav/Naihati/Dataset/AVA/AVA_STYLE_FOUR_CHANNEL/ --dataset AVAStyle_Double_Column_Test --model TCD_ResNet18_SAL_2_Col --save /media/koustav/Naihati/CNN_Models/CAM_STYLE_3/ --batch_size 32 --epochs 60 --lr 0.001 --testDataPath /media/koustav/Naihati/Dataset/AVA/AVAStyleTestData_4_Channels/ --testLabels /media/koustav/Naihati/Dataset/AVA/style_image_lists/test.multilab --testIds /media/koustav/Naihati/Dataset/AVA/style_image_lists/test.jpgl --aug_train SAL_CC --aug_test SAL_CC --withTesting --dr 0.0 --pretrained --csv 6C_2C_25_Aug.csv
Namespace(aug_test='SAL_CC', aug_train='SAL_CC', batch_size=32, csv='6C_2C_25_Aug.csv', cuda=True, datapath='/media/koustav/Naihati/Dataset/AVA/AVA_STYLE_FOUR_CHANNEL/', dataset='AVAStyle_Double_Column_Test', dr=0.0, epochs=60, fiftyPatch=False, freeze=False, lr=0.001, model='TCD_ResNet18_SAL_2_Col', pretrained=True, save='/media/koustav/Naihati/CNN_Models/CAM_STYLE_3/', testDataPath='/media/koustav/Naihati/Dataset/AVA/AVAStyleTestData_4_Channels/', testIds='/media/koustav/Naihati/Dataset/AVA/style_image_lists/test.jpgl', testLabels='/media/koustav/Naihati/Dataset/AVA/style_image_lists/test.multilab', tiny=False, withTesting=True)
Data Augmentation Initialized with strategy SAL_CC
Traceback (most recent call last):
  File "CNN_Master.py", line 378, in <module>
    num_epochs=args.epochs);
  File "CNN_Master.py", line 183, in train_model
    for count, data in enumerate(dset_loaders[phase]):
  File "/home/koustav/Desktop/IPA/intelligent_photograph_assesment/venv/local/lib/python2.7/site-packages/torch/utils/data/dataloader.py", line 195, in __next__
    idx, batch = self.data_queue.get()
  File "/usr/lib/python2.7/multiprocessing/queues.py", line 376, in get
    return recv()
  File "/home/koustav/Desktop/IPA/intelligent_photograph_assesment/venv/local/lib/python2.7/site-packages/torch/multiprocessing/queue.py", line 22, in recv
    return pickle.loads(buf)
  File "/usr/lib/python2.7/pickle.py", line 1382, in loads
    return Unpickler(file).load()
  File "/usr/lib/python2.7/pickle.py", line 858, in load
    dispatch[key](self)
  File "/usr/lib/python2.7/pickle.py", line 1133, in load_reduce
    value = func(*args)
  File "/home/koustav/Desktop/IPA/intelligent_photograph_assesment/venv/local/lib/python2.7/site-packages/torch/multiprocessing/reductions.py", line 68, in rebuild_storage_fd
    fd = multiprocessing.reduction.rebuild_handle(df)
  File "/usr/lib/python2.7/multiprocessing/reduction.py", line 155, in rebuild_handle
    conn = Client(address, authkey=current_process().authkey)
  File "/usr/lib/python2.7/multiprocessing/connection.py", line 175, in Client
    answer_challenge(c, authkey)
  File "/usr/lib/python2.7/multiprocessing/connection.py", line 428, in answer_challenge
    message = connection.recv_bytes(256)         # reject large message
IOError: [Errno 104] Connection reset by peer
$ python -W ignore CNN_Master.py --cuda --datapath /media/koustav/Naihati/Dataset/AVA/AVA_STYLE_FOUR_CHANNEL/ --dataset AVAStyle_Double_Column_Test --model TCD_ResNet18_SAL_2_Col --save /media/koustav/Naihati/CNN_Models/CAM_STYLE_3/ --batch_size 32 --epochs 60 --lr 0.001 --testDataPath /media/koustav/Naihati/Dataset/AVA/AVAStyleTestData_4_Channels/ --testLabels /media/koustav/Naihati/Dataset/AVA/style_image_lists/test.multilab --testIds /media/koustav/Naihati/Dataset/AVA/style_image_lists/test.jpgl --aug_train SAL_S --aug_test SAL_S --withTesting --dr 0.0 --pretrained --csv 6C_2C_25_Aug.csv
Namespace(aug_test='SAL_S', aug_train='SAL_S', batch_size=32, csv='6C_2C_25_Aug.csv', cuda=True, datapath='/media/koustav/Naihati/Dataset/AVA/AVA_STYLE_FOUR_CHANNEL/', dataset='AVAStyle_Double_Column_Test', dr=0.0, epochs=60, fiftyPatch=False, freeze=False, lr=0.001, model='TCD_ResNet18_SAL_2_Col', pretrained=True, save='/media/koustav/Naihati/CNN_Models/CAM_STYLE_3/', testDataPath='/media/koustav/Naihati/Dataset/AVA/AVAStyleTestData_4_Channels/', testIds='/media/koustav/Naihati/Dataset/AVA/style_image_lists/test.jpgl', testLabels='/media/koustav/Naihati/Dataset/AVA/style_image_lists/test.multilab', tiny=False, withTesting=True)
Data Augmentation Initialized with strategy SAL_S


Experiment started at :  Wed Oct 18 22:57:40 IST 2017 

$ python -W ignore CNN_Master.py --cuda --datapath /media/koustav/Naihati/Dataset/AVA/AVA_STYLE_FOUR_CHANNEL/ --dataset AVAStyle_Double_Column_Test --model TCD_ResNet18_SAL_2_Col --save /media/koustav/Naihati/CNN_Models/CAM_STYLE_3/ --batch_size 32 --epochs 60 --lr 0.001 --testDataPath /media/koustav/Naihati/Dataset/AVA/AVAStyleTestData_4_Channels/ --testLabels /media/koustav/Naihati/Dataset/AVA/style_image_lists/test.multilab --testIds /media/koustav/Naihati/Dataset/AVA/style_image_lists/test.jpgl --aug_train SAL_CC --aug_test SAL_CC --withTesting --dr 0.0 --pretrained --csv 6C_2C_25_Aug.csv
Namespace(aug_test='SAL_CC', aug_train='SAL_CC', batch_size=32, csv='6C_2C_25_Aug.csv', cuda=True, datapath='/media/koustav/Naihati/Dataset/AVA/AVA_STYLE_FOUR_CHANNEL/', dataset='AVAStyle_Double_Column_Test', dr=0.0, epochs=60, fiftyPatch=False, freeze=False, lr=0.001, model='TCD_ResNet18_SAL_2_Col', pretrained=True, save='/media/koustav/Naihati/CNN_Models/CAM_STYLE_3/', testDataPath='/media/koustav/Naihati/Dataset/AVA/AVAStyleTestData_4_Channels/', testIds='/media/koustav/Naihati/Dataset/AVA/style_image_lists/test.jpgl', testLabels='/media/koustav/Naihati/Dataset/AVA/style_image_lists/test.multilab', tiny=False, withTesting=True)
Data Augmentation Initialized with strategy SAL_CC
Epoch 0 || train Loss: 0.0681 || Acc: 0.2994 || Epoch 0 || val Loss: 0.0553 || Acc: 0.4582 || 
Epoch 1 || train Loss: 0.0513 || Acc: 0.4747 || Epoch 1 || val Loss: 0.0476 || Acc: 0.5141 || 
Epoch 2 || train Loss: 0.0433 || Acc: 0.5595 || Epoch 2 || val Loss: 0.0460 || Acc: 0.5173 || 
Epoch 3 || train Loss: 0.0366 || Acc: 0.6210 || Epoch 3 || val Loss: 0.0457 || Acc: 0.5216 || 
Epoch 4 || train Loss: 0.0299 || Acc: 0.6978 || Epoch 4 || val Loss: 0.0467 || Acc: 0.5120 || 
Epoch 5 || train Loss: 0.0226 || Acc: 0.7877 || Epoch 5 || val Loss: 0.0483 || Acc: 0.5024 || 
Epoch 6 || train Loss: 0.0156 || Acc: 0.8713 || Epoch 6 || val Loss: 0.0529 || Acc: 0.4832 || 
Epoch 7 || train Loss: 0.0098 || Acc: 0.9351 || Epoch 7 || val Loss: 0.0555 || Acc: 0.4901 || 
Epoch     7: reducing learning rate of group 0 to 5.0000e-04.
Epoch 8 || train Loss: 0.0053 || Acc: 0.9768 || Epoch 8 || val Loss: 0.0555 || Acc: 0.4896 || 
Epoch 9 || train Loss: 0.0039 || Acc: 0.9866 || Epoch 9 || val Loss: 0.0567 || Acc: 0.4901 || 
Epoch 10 || train Loss: 0.0030 || Acc: 0.9928 || Epoch 10 || val Loss: 0.0577 || Acc: 0.4891 || 
Epoch 11 || train Loss: 0.0024 || Acc: 0.9955 || Epoch 11 || val Loss: 0.0586 || Acc: 0.4912 || 
Epoch    11: reducing learning rate of group 0 to 2.5000e-04.
Epoch 12 || train Loss: 0.0019 || Acc: 0.9964 || Epoch 12 || val Loss: 0.0600 || Acc: 0.4853 || 
Epoch 13 || train Loss: 0.0018 || Acc: 0.9974 || Epoch 13 || val Loss: 0.0602 || Acc: 0.4843 || 
Epoch 14 || train Loss: 0.0016 || Acc: 0.9978 || Epoch 14 || val Loss: 0.0604 || Acc: 0.4885 || 
Epoch 15 || train Loss: 0.0015 || Acc: 0.9989 || Epoch 15 || val Loss: 0.0604 || Acc: 0.4917 || 
Epoch    15: reducing learning rate of group 0 to 1.2500e-04.
Epoch 16 || train Loss: 0.0014 || Acc: 0.9987 || Epoch 16 || val Loss: 0.0613 || Acc: 0.4896 || 
Epoch 17 || train Loss: 0.0013 || Acc: 0.9990 || Epoch 17 || val Loss: 0.0605 || Acc: 0.4923 || 
Epoch 18 || train Loss: 0.0012 || Acc: 0.9991 || Epoch 18 || val Loss: 0.0607 || Acc: 0.4901 || 
Epoch 19 || train Loss: 0.0012 || Acc: 0.9993 || Epoch 19 || val Loss: 0.0616 || Acc: 0.4838 || 
Epoch    19: reducing learning rate of group 0 to 6.2500e-05.
Epoch 20 || train Loss: 0.0012 || Acc: 0.9987 || Epoch 20 || val Loss: 0.0618 || Acc: 0.4869 || 
Epoch 21 || train Loss: 0.0011 || Acc: 0.9993 || Epoch 21 || val Loss: 0.0616 || Acc: 0.4811 || 
Epoch 22 || train Loss: 0.0011 || Acc: 0.9993 || Epoch 22 || val Loss: 0.0613 || Acc: 0.4928 || 
Epoch 23 || train Loss: 0.0011 || Acc: 0.9996 || Epoch 23 || val Loss: 0.0612 || Acc: 0.4869 || 
Epoch    23: reducing learning rate of group 0 to 3.1250e-05.
Epoch 24 || train Loss: 0.0010 || Acc: 0.9991 || Epoch 24 || val Loss: 0.0615 || Acc: 0.4901 || 
Epoch 25 || train Loss: 0.0011 || Acc: 0.9993 || Epoch 25 || val Loss: 0.0614 || Acc: 0.4944 || 
Epoch 26 || train Loss: 0.0010 || Acc: 0.9990 || Epoch 26 || val Loss: 0.0614 || Acc: 0.4885 || 
Epoch 27 || train Loss: 0.0010 || Acc: 0.9991 || Epoch 27 || val Loss: 0.0609 || Acc: 0.4933 || 
Epoch    27: reducing learning rate of group 0 to 1.5625e-05.
Epoch 28 || train Loss: 0.0010 || Acc: 0.9994 || Epoch 28 || val Loss: 0.0618 || Acc: 0.4955 || 
Epoch 29 || train Loss: 0.0010 || Acc: 0.9988 || Epoch 29 || val Loss: 0.0612 || Acc: 0.4960 || 
Epoch 30 || train Loss: 0.0010 || Acc: 0.9989 || Epoch 30 || val Loss: 0.0615 || Acc: 0.4885 || 
Epoch 31 || train Loss: 0.0010 || Acc: 0.9995 || Epoch 31 || val Loss: 0.0612 || Acc: 0.4901 || 
Epoch    31: reducing learning rate of group 0 to 7.8125e-06.
Epoch 32 || train Loss: 0.0010 || Acc: 0.9991 || Epoch 32 || val Loss: 0.0615 || Acc: 0.4939 || 
Epoch 33 || train Loss: 0.0010 || Acc: 0.9987 || Epoch 33 || val Loss: 0.0618 || Acc: 0.4885 || 
Epoch 34 || train Loss: 0.0010 || Acc: 0.9990 || Epoch 34 || val Loss: 0.0618 || Acc: 0.4965 || 
Epoch 35 || train Loss: 0.0010 || Acc: 0.9994 || Epoch 35 || val Loss: 0.0613 || Acc: 0.4827 || 
Epoch    35: reducing learning rate of group 0 to 3.9063e-06.
Epoch 36 || train Loss: 0.0010 || Acc: 0.9994 || Epoch 36 || val Loss: 0.0615 || Acc: 0.4875 || 
Epoch 37 || train Loss: 0.0010 || Acc: 0.9989 || Epoch 37 || val Loss: 0.0620 || Acc: 0.4853 || 
Epoch 38 || train Loss: 0.0009 || Acc: 0.9993 || Epoch 38 || val Loss: 0.0621 || Acc: 0.4853 || 
Epoch 39 || train Loss: 0.0010 || Acc: 0.9994 || Epoch 39 || val Loss: 0.0616 || Acc: 0.4896 || 
Epoch    39: reducing learning rate of group 0 to 1.9531e-06.
Epoch 40 || train Loss: 0.0010 || Acc: 0.9996 || Epoch 40 || val Loss: 0.0615 || Acc: 0.4891 || 
Epoch 41 || train Loss: 0.0010 || Acc: 0.9995 || Epoch 41 || val Loss: 0.0615 || Acc: 0.4939 || 
Epoch 42 || train Loss: 0.0010 || Acc: 0.9989 || Epoch 42 || val Loss: 0.0619 || Acc: 0.4923 || 
Epoch 43 || train Loss: 0.0010 || Acc: 0.9995 || Epoch 43 || val Loss: 0.0615 || Acc: 0.4917 || 
Epoch    43: reducing learning rate of group 0 to 9.7656e-07.
Epoch 44 || train Loss: 0.0010 || Acc: 0.9991 || Epoch 44 || val Loss: 0.0622 || Acc: 0.4891 || 
Epoch 45 || train Loss: 0.0010 || Acc: 0.9995 || Epoch 45 || val Loss: 0.0611 || Acc: 0.4960 || 
Epoch 46 || train Loss: 0.0010 || Acc: 0.9991 || Epoch 46 || val Loss: 0.0618 || Acc: 0.4933 || 
Epoch 47 || train Loss: 0.0010 || Acc: 0.9989 || Epoch 47 || val Loss: 0.0628 || Acc: 0.4917 || 
Epoch    47: reducing learning rate of group 0 to 4.8828e-07.
Epoch 48 || train Loss: 0.0010 || Acc: 0.9993 || Epoch 48 || val Loss: 0.0619 || Acc: 0.4955 || 
Epoch 49 || train Loss: 0.0010 || Acc: 0.9991 || Epoch 49 || val Loss: 0.0624 || Acc: 0.4848 || 
Epoch 50 || train Loss: 0.0010 || Acc: 0.9988 || Epoch 50 || val Loss: 0.0614 || Acc: 0.4822 || 
Epoch 51 || train Loss: 0.0010 || Acc: 0.9993 || Epoch 51 || val Loss: 0.0610 || Acc: 0.4949 || 
Epoch    51: reducing learning rate of group 0 to 2.4414e-07.
Epoch 52 || train Loss: 0.0010 || Acc: 0.9993 || Epoch 52 || val Loss: 0.0620 || Acc: 0.4885 || 
Epoch 53 || train Loss: 0.0010 || Acc: 0.9988 || Epoch 53 || val Loss: 0.0616 || Acc: 0.4933 || 
Epoch 54 || train Loss: 0.0010 || Acc: 0.9988 || Epoch 54 || val Loss: 0.0619 || Acc: 0.4917 || 
Epoch 55 || train Loss: 0.0010 || Acc: 0.9991 || Epoch 55 || val Loss: 0.0617 || Acc: 0.4880 || 
Epoch    55: reducing learning rate of group 0 to 1.2207e-07.
Epoch 56 || train Loss: 0.0010 || Acc: 0.9995 || Epoch 56 || val Loss: 0.0617 || Acc: 0.4885 || 
Epoch 57 || train Loss: 0.0009 || Acc: 0.9996 || Epoch 57 || val Loss: 0.0607 || Acc: 0.4864 || 
Epoch 58 || train Loss: 0.0010 || Acc: 0.9993 || Epoch 58 || val Loss: 0.0615 || Acc: 0.4955 || 
Epoch 59 || train Loss: 0.0010 || Acc: 0.9990 || Epoch 59 || val Loss: 0.0614 || Acc: 0.4843 || 
Epoch    59: reducing learning rate of group 0 to 6.1035e-08.

Training complete in 99m 57s
Best val Acc: 0.521577
{'train': [[0.680657930484232, 0.5128838480563692, 0.4326654176214609, 0.3657964585478768, 0.2991632183885513, 0.2256999764306365, 0.15574239573452195, 0.09846710996935641, 0.052925037541046466, 0.03868960970140716, 0.02988811530564625, 0.024282754776746913, 0.01943688707481138, 0.017992332251204952, 0.015915543638892846, 0.015053633344051113, 0.013803186587106983, 0.012573805781397466, 0.011914772805353677, 0.011719372290711773, 0.011801501746397337, 0.011285932717885456, 0.010667897485333562, 0.010967138308956868, 0.01034319442993507, 0.010524136884286904, 0.010416336164878647, 0.010103550550455006, 0.009897468765292121, 0.010190905625651208, 0.010181315316507684, 0.009703271607810638, 0.010216341454690213, 0.010032634696373322, 0.010224002225913008, 0.010025674718511365, 0.010076500132979364, 0.009935611620857553, 0.00945061354453159, 0.009874013149429968, 0.009564061590612521, 0.009857151209798416, 0.009973230522863372, 0.009722220319211355, 0.009996289695529868, 0.010020192354191264, 0.009862646387269629, 0.00994123279564194, 0.010435000331152602, 0.009625873848152446, 0.009850414996220547, 0.01014886493227226, 0.009804833696318162, 0.009933356426627578, 0.010244067998817202, 0.009907428382260008, 0.00985657206173889, 0.00942109438561639, 0.00991707870775739, 0.009878498098728187], [0.2993800769559641, 0.47466866182129114, 0.5595339888841385, 0.6209918768704574, 0.6978409576742197, 0.7877297990594271, 0.8713125267208208, 0.935121846943138, 0.9768063274903805, 0.9866395895681915, 0.9928388200085506, 0.9955109020949123, 0.9963659683625481, 0.9974348011970928, 0.9977554510474562, 0.9989311671654553, 0.9987174005985464, 0.9990380504489098, 0.9991449337323642, 0.9992518170158188, 0.9987174005985464, 0.9992518170158188, 0.9992518170158188, 0.9995724668661822, 0.9991449337323642, 0.9992518170158188, 0.9990380504489098, 0.9991449337323642, 0.9993587002992732, 0.9988242838820008, 0.9989311671654553, 0.9994655835827276, 0.9991449337323642, 0.9987174005985464, 0.9990380504489098, 0.9993587002992732, 0.9993587002992732, 0.9989311671654553, 0.9992518170158188, 0.9993587002992732, 0.9995724668661822, 0.9994655835827276, 0.9989311671654553, 0.9994655835827276, 0.9991449337323642, 0.9994655835827276, 0.9991449337323642, 0.9989311671654553, 0.9992518170158188, 0.9991449337323642, 0.9988242838820008, 0.9992518170158188, 0.9992518170158188, 0.9988242838820008, 0.9988242838820008, 0.9991449337323642, 0.9994655835827276, 0.9995724668661822, 0.9992518170158188, 0.9990380504489098]], 'val': [[0.5530734365775221, 0.4762833449963756, 0.45992407001074664, 0.45696182840354405, 0.4665986641836598, 0.4828914455358945, 0.5286374153072172, 0.554723827268573, 0.5550075415670713, 0.5668170609624067, 0.5766737419808234, 0.5859857413383894, 0.6004108059069675, 0.6016914737815227, 0.6042873827650246, 0.6036333632583496, 0.6133231153879384, 0.6054080459877221, 0.6072252960235563, 0.6157795520430877, 0.617997781609244, 0.6155316951621639, 0.6130891107915879, 0.6124134021168639, 0.6147374602537811, 0.6142323069199006, 0.6136601791778141, 0.6087447146373539, 0.6180056315123813, 0.6124914130697113, 0.6153545204349573, 0.6120169880419382, 0.6149311858285407, 0.6175167298913955, 0.6183290868981696, 0.612531311028043, 0.615331755080754, 0.6200191183298525, 0.6210991354400196, 0.6156293064212952, 0.614765976805222, 0.6153724310432398, 0.6194797810812104, 0.6150976209228954, 0.6221663901065345, 0.6109951507175102, 0.6180219797613016, 0.6282130453773299, 0.6191686149855276, 0.6241107634807052, 0.6140971450521137, 0.6099460934093802, 0.6203187039130917, 0.6157339648102977, 0.6189047305839266, 0.616720545209337, 0.6171360121296642, 0.6074694349972822, 0.6152426256546646, 0.6144058221696093], [0.4581779435269046, 0.514118273841236, 0.5173148641449121, 0.5215769845498135, 0.5119872136387853, 0.5023974427277571, 0.4832179009057006, 0.49014384656366544, 0.48961108151305277, 0.49014384656366544, 0.48907831646244004, 0.4912093766648908, 0.4853489611081513, 0.48428343100692595, 0.4885455514118274, 0.49174214171550346, 0.48961108151305277, 0.4922749067661161, 0.49014384656366544, 0.4837506659563133, 0.48694725625998936, 0.48108684070324986, 0.4928076718167288, 0.48694725625998936, 0.49014384656366544, 0.49440596696856687, 0.4885455514118274, 0.4933404368673415, 0.4954714970697922, 0.4960042621204049, 0.4885455514118274, 0.49014384656366544, 0.4938732019179542, 0.4885455514118274, 0.4965370271710176, 0.48268513585508793, 0.48748002131060203, 0.4853489611081513, 0.4853489611081513, 0.48961108151305277, 0.48907831646244004, 0.4938732019179542, 0.4922749067661161, 0.49174214171550346, 0.48907831646244004, 0.4960042621204049, 0.4933404368673415, 0.49174214171550346, 0.4954714970697922, 0.4848161960575386, 0.4821523708044752, 0.49493873201917954, 0.4885455514118274, 0.4933404368673415, 0.49174214171550346, 0.4880127863612147, 0.4885455514118274, 0.4864144912093767, 0.4954714970697922, 0.48428343100692595]]}
Data Augmentation Initialized with strategy SAL_CC

Testing MAP... 
0 / 2573 images processed.
500 / 2573 images processed.
1000 / 2573 images processed.
1500 / 2573 images processed.
2000 / 2573 images processed.
2500 / 2573 images processed.
Prediction Complete... 
Number of samples used for testing = 2573 
Number of GT values = 2573
Run Time : 66.462432 seconds

AP = 0.755055 
mAP_macro = 0.590560 
mAP_weighted = 0.627090 
mAP_micro = 0.605540 

Per Class :  [ 0.53265296  0.81378597  0.41341058  0.74490969  0.79750438  0.48735794
  0.56338045  0.4490713   0.62346734  0.38083476  0.73099439  0.88195732
  0.30452352  0.54399222]
Confusion : [[ 132.    4.    6.    9.    4.   10.   31.    7.    8.   20.    5.    3.
     7.    8.]
 [   2.  422.    1.   23.   23.    8.   35.    7.   30.   30.   15.    1.
    10.    6.]
 [   4.    2.   35.    4.    1.    6.    5.    5.    4.    9.    3.    5.
     2.    5.]
 [   0.    0.    1.  145.    2.    3.    6.    2.    7.   11.    5.    2.
     2.    3.]
 [   3.    1.    0.    0.  143.    0.    8.    0.    4.    0.    3.    0.
     1.    0.]
 [   3.    7.   13.    7.    5.   98.   10.   13.   12.    6.   14.    6.
    12.   12.]
 [  20.    5.    1.    9.   32.    3.  322.    6.   15.   16.   22.    2.
    19.    1.]
 [   6.    4.    3.    6.    3.   13.   12.   60.    9.   12.   12.    3.
    12.    6.]
 [   4.    6.    1.    5.    3.    2.   14.    6.  140.    5.    5.    5.
     5.    1.]
 [   9.   16.    8.   16.   16.   10.   63.   17.   25.  190.   18.   11.
    23.    9.]
 [  25.   13.    3.    7.   20.    9.   96.   12.   32.   42.  421.    7.
    31.    3.]
 [   1.    4.    0.    6.    3.    6.    4.    2.    5.    4.    4.  186.
     2.    4.]
 [  10.    9.    1.    6.    6.    8.   25.    7.   13.    6.   19.    3.
    72.    4.]
 [   1.   10.    4.    4.    4.    2.    3.    2.   11.    5.    2.    2.
     1.   64.]]
$ python -W ignore CNN_Master.py --cuda --datapath /media/koustav/Naihati/Dataset/AVA/AVA_STYLE_FOUR_CHANNEL/ --dataset AVAStyle_Double_Column_Test --model TCD_ResNet18_SAL_2_Col --save /media/koustav/Naihati/CNN_Models/CAM_STYLE_3/ --batch_size 32 --epochs 60 --lr 0.001 --testDataPath /media/koustav/Naihati/Dataset/AVA/AVAStyleTestData_4_Channels/ --testLabels /media/koustav/Naihati/Dataset/AVA/style_image_lists/test.multilab --testIds /media/koustav/Naihati/Dataset/AVA/style_image_lists/test.jpgl --aug_train SAL_S --aug_test SAL_S --withTesting --dr 0.0 --pretrained --csv 6C_2C_25_Aug.csv
Namespace(aug_test='SAL_S', aug_train='SAL_S', batch_size=32, csv='6C_2C_25_Aug.csv', cuda=True, datapath='/media/koustav/Naihati/Dataset/AVA/AVA_STYLE_FOUR_CHANNEL/', dataset='AVAStyle_Double_Column_Test', dr=0.0, epochs=60, fiftyPatch=False, freeze=False, lr=0.001, model='TCD_ResNet18_SAL_2_Col', pretrained=True, save='/media/koustav/Naihati/CNN_Models/CAM_STYLE_3/', testDataPath='/media/koustav/Naihati/Dataset/AVA/AVAStyleTestData_4_Channels/', testIds='/media/koustav/Naihati/Dataset/AVA/style_image_lists/test.jpgl', testLabels='/media/koustav/Naihati/Dataset/AVA/style_image_lists/test.multilab', tiny=False, withTesting=True)
Data Augmentation Initialized with strategy SAL_S
Epoch 0 || train Loss: 0.0680 || Acc: 0.3058 || Epoch 0 || val Loss: 0.0537 || Acc: 0.4822 || 
Epoch 1 || train Loss: 0.0502 || Acc: 0.4948 || Epoch 1 || val Loss: 0.0456 || Acc: 0.5301 || 
Epoch 2 || train Loss: 0.0414 || Acc: 0.5841 || Epoch 2 || val Loss: 0.0424 || Acc: 0.5530 || 
Epoch 3 || train Loss: 0.0347 || Acc: 0.6470 || Epoch 3 || val Loss: 0.0422 || Acc: 0.5679 || 
Epoch 4 || train Loss: 0.0274 || Acc: 0.7349 || Epoch 4 || val Loss: 0.0422 || Acc: 0.5711 || 
Epoch 5 || train Loss: 0.0201 || Acc: 0.8200 || Epoch 5 || val Loss: 0.0453 || Acc: 0.5429 || 
Epoch 6 || train Loss: 0.0132 || Acc: 0.8963 || Epoch 6 || val Loss: 0.0480 || Acc: 0.5461 || 
Epoch 7 || train Loss: 0.0079 || Acc: 0.9538 || Epoch 7 || val Loss: 0.0504 || Acc: 0.5354 || 
Epoch 8 || train Loss: 0.0047 || Acc: 0.9788 || Epoch 8 || val Loss: 0.0528 || Acc: 0.5349 || 
Epoch     8: reducing learning rate of group 0 to 5.0000e-04.
Epoch 9 || train Loss: 0.0026 || Acc: 0.9931 || Epoch 9 || val Loss: 0.0519 || Acc: 0.5493 || 
Epoch 10 || train Loss: 0.0020 || Acc: 0.9971 || Epoch 10 || val Loss: 0.0523 || Acc: 0.5530 || 
Epoch 11 || train Loss: 0.0017 || Acc: 0.9978 || Epoch 11 || val Loss: 0.0531 || Acc: 0.5535 || 
Epoch 12 || train Loss: 0.0014 || Acc: 0.9982 || Epoch 12 || val Loss: 0.0540 || Acc: 0.5429 || 
Epoch    12: reducing learning rate of group 0 to 2.5000e-04.
Epoch 13 || train Loss: 0.0012 || Acc: 0.9984 || Epoch 13 || val Loss: 0.0541 || Acc: 0.5418 || 
Epoch 14 || train Loss: 0.0011 || Acc: 0.9990 || Epoch 14 || val Loss: 0.0539 || Acc: 0.5418 || 
Epoch 15 || train Loss: 0.0009 || Acc: 0.9995 || Epoch 15 || val Loss: 0.0541 || Acc: 0.5503 || 
Epoch 16 || train Loss: 0.0009 || Acc: 0.9998 || Epoch 16 || val Loss: 0.0544 || Acc: 0.5503 || 
Epoch    16: reducing learning rate of group 0 to 1.2500e-04.
Epoch 17 || train Loss: 0.0009 || Acc: 0.9996 || Epoch 17 || val Loss: 0.0545 || Acc: 0.5487 || 
Epoch 18 || train Loss: 0.0008 || Acc: 0.9997 || Epoch 18 || val Loss: 0.0541 || Acc: 0.5440 || 
Epoch 19 || train Loss: 0.0008 || Acc: 0.9998 || Epoch 19 || val Loss: 0.0545 || Acc: 0.5541 || 
Epoch 20 || train Loss: 0.0009 || Acc: 0.9993 || Epoch 20 || val Loss: 0.0550 || Acc: 0.5493 || 
Epoch    20: reducing learning rate of group 0 to 6.2500e-05.
Epoch 21 || train Loss: 0.0007 || Acc: 0.9998 || Epoch 21 || val Loss: 0.0548 || Acc: 0.5503 || 
Epoch 22 || train Loss: 0.0008 || Acc: 0.9997 || Epoch 22 || val Loss: 0.0549 || Acc: 0.5493 || 
Epoch 23 || train Loss: 0.0008 || Acc: 0.9997 || Epoch 23 || val Loss: 0.0549 || Acc: 0.5466 || 
Epoch 24 || train Loss: 0.0007 || Acc: 0.9998 || Epoch 24 || val Loss: 0.0550 || Acc: 0.5503 || 
Epoch    24: reducing learning rate of group 0 to 3.1250e-05.
Epoch 25 || train Loss: 0.0007 || Acc: 0.9997 || Epoch 25 || val Loss: 0.0552 || Acc: 0.5477 || 
Epoch 26 || train Loss: 0.0007 || Acc: 0.9995 || Epoch 26 || val Loss: 0.0549 || Acc: 0.5503 || 
Epoch 27 || train Loss: 0.0007 || Acc: 0.9999 || Epoch 27 || val Loss: 0.0552 || Acc: 0.5509 || 
Epoch 28 || train Loss: 0.0007 || Acc: 0.9998 || Epoch 28 || val Loss: 0.0549 || Acc: 0.5471 || 
Epoch    28: reducing learning rate of group 0 to 1.5625e-05.
Epoch 29 || train Loss: 0.0007 || Acc: 0.9999 || Epoch 29 || val Loss: 0.0549 || Acc: 0.5514 || 
Epoch 30 || train Loss: 0.0007 || Acc: 0.9997 || Epoch 30 || val Loss: 0.0550 || Acc: 0.5482 || 
Epoch 31 || train Loss: 0.0007 || Acc: 0.9996 || Epoch 31 || val Loss: 0.0549 || Acc: 0.5365 || 
Epoch 32 || train Loss: 0.0007 || Acc: 0.9996 || Epoch 32 || val Loss: 0.0553 || Acc: 0.5424 || 
Epoch    32: reducing learning rate of group 0 to 7.8125e-06.
Epoch 33 || train Loss: 0.0007 || Acc: 0.9998 || Epoch 33 || val Loss: 0.0546 || Acc: 0.5546 || 
Epoch 34 || train Loss: 0.0007 || Acc: 1.0000 || Epoch 34 || val Loss: 0.0544 || Acc: 0.5471 || 
Epoch 35 || train Loss: 0.0007 || Acc: 0.9996 || Epoch 35 || val Loss: 0.0554 || Acc: 0.5503 || 
Epoch 36 || train Loss: 0.0007 || Acc: 0.9998 || Epoch 36 || val Loss: 0.0551 || Acc: 0.5461 || 
Epoch    36: reducing learning rate of group 0 to 3.9063e-06.
Epoch 37 || train Loss: 0.0007 || Acc: 0.9996 || Epoch 37 || val Loss: 0.0551 || Acc: 0.5471 || 
Epoch 38 || train Loss: 0.0007 || Acc: 1.0000 || Epoch 38 || val Loss: 0.0550 || Acc: 0.5503 || 
Epoch 39 || train Loss: 0.0007 || Acc: 0.9996 || Epoch 39 || val Loss: 0.0548 || Acc: 0.5487 || 
Epoch 40 || train Loss: 0.0007 || Acc: 0.9996 || Epoch 40 || val Loss: 0.0553 || Acc: 0.5450 || 
Epoch    40: reducing learning rate of group 0 to 1.9531e-06.
Epoch 41 || train Loss: 0.0007 || Acc: 1.0000 || Epoch 41 || val Loss: 0.0550 || Acc: 0.5482 || 
Epoch 42 || train Loss: 0.0007 || Acc: 0.9998 || Epoch 42 || val Loss: 0.0552 || Acc: 0.5551 || 
Epoch 43 || train Loss: 0.0007 || Acc: 1.0000 || Epoch 43 || val Loss: 0.0553 || Acc: 0.5482 || 
Epoch 44 || train Loss: 0.0007 || Acc: 0.9998 || Epoch 44 || val Loss: 0.0549 || Acc: 0.5503 || 
Epoch    44: reducing learning rate of group 0 to 9.7656e-07.
Epoch 45 || train Loss: 0.0007 || Acc: 0.9996 || Epoch 45 || val Loss: 0.0552 || Acc: 0.5445 || 
Epoch 46 || train Loss: 0.0006 || Acc: 0.9998 || Epoch 46 || val Loss: 0.0550 || Acc: 0.5434 || 
Epoch 47 || train Loss: 0.0007 || Acc: 0.9998 || Epoch 47 || val Loss: 0.0557 || Acc: 0.5471 || 
Epoch 48 || train Loss: 0.0007 || Acc: 0.9996 || Epoch 48 || val Loss: 0.0555 || Acc: 0.5519 || 
Epoch    48: reducing learning rate of group 0 to 4.8828e-07.
Epoch 49 || train Loss: 0.0007 || Acc: 0.9999 || Epoch 49 || val Loss: 0.0560 || Acc: 0.5445 || 
Epoch 50 || train Loss: 0.0007 || Acc: 0.9996 || Epoch 50 || val Loss: 0.0553 || Acc: 0.5413 || 
Epoch 51 || train Loss: 0.0007 || Acc: 0.9995 || Epoch 51 || val Loss: 0.0556 || Acc: 0.5493 || 
Epoch 52 || train Loss: 0.0007 || Acc: 0.9995 || Epoch 52 || val Loss: 0.0548 || Acc: 0.5461 || 
Epoch    52: reducing learning rate of group 0 to 2.4414e-07.
Epoch 53 || train Loss: 0.0007 || Acc: 0.9997 || Epoch 53 || val Loss: 0.0548 || Acc: 0.5498 || 
Epoch 54 || train Loss: 0.0007 || Acc: 0.9999 || Epoch 54 || val Loss: 0.0557 || Acc: 0.5450 || 
Epoch 55 || train Loss: 0.0007 || Acc: 0.9997 || Epoch 55 || val Loss: 0.0555 || Acc: 0.5493 || 
Epoch 56 || train Loss: 0.0007 || Acc: 0.9998 || Epoch 56 || val Loss: 0.0548 || Acc: 0.5519 || 
Epoch    56: reducing learning rate of group 0 to 1.2207e-07.
Epoch 57 || train Loss: 0.0007 || Acc: 0.9995 || Epoch 57 || val Loss: 0.0550 || Acc: 0.5525 || 
Epoch 58 || train Loss: 0.0007 || Acc: 0.9998 || Epoch 58 || val Loss: 0.0557 || Acc: 0.5376 || 
Epoch 59 || train Loss: 0.0007 || Acc: 0.9998 || Epoch 59 || val Loss: 0.0547 || Acc: 0.5466 || 

Training complete in 107m 37s
Best val Acc: 0.571124
{'train': [[0.6795048629590312, 0.5021457455004317, 0.41358797659268487, 0.3467767572571142, 0.27389267727879185, 0.20075223862156494, 0.13241514332621157, 0.07912231719120541, 0.04687249535466168, 0.025989946667558873, 0.019520446108658124, 0.016875270548642525, 0.014285955621091258, 0.01221278308070129, 0.010691844321096131, 0.009193461796076902, 0.008919205482334039, 0.008655344249538092, 0.008487082004878398, 0.00805756126543608, 0.00854852317178215, 0.007433656184221751, 0.007526716850490945, 0.007572522233214425, 0.00702239833405865, 0.0073957895798757575, 0.007243583909769046, 0.006572243165465286, 0.007486154610795208, 0.007048263961099671, 0.007248940396227354, 0.0070882250697006785, 0.007181548532982472, 0.006720200332312464, 0.006719234225496668, 0.0066641374567205855, 0.007330712628586264, 0.006597490623663408, 0.006619270635325208, 0.007134847241036144, 0.007084023267948103, 0.007009965380754875, 0.007031208653577937, 0.006704264499212035, 0.007011545037626965, 0.006653226397584371, 0.006407364584145611, 0.006852927707317243, 0.006644748670517659, 0.006685777399696923, 0.007096976479782208, 0.006937003802379108, 0.007061006612008635, 0.007119706157768522, 0.00666237199323052, 0.006570687004679184, 0.007084310257846394, 0.007364527075883923, 0.0067050749091204535, 0.006917413537537455], [0.30579307396323213, 0.4947627191107311, 0.5841171440786661, 0.6469645147498931, 0.73492945703292, 0.8200085506626763, 0.8963232150491663, 0.95382642154767, 0.9788371098760154, 0.9930525865754596, 0.9971141513467293, 0.9977554510474562, 0.998182984181274, 0.998396750748183, 0.9990380504489098, 0.9994655835827276, 0.999786233433091, 0.9995724668661822, 0.9996793501496366, 0.999786233433091, 0.9992518170158188, 0.999786233433091, 0.9996793501496366, 0.9996793501496366, 0.999786233433091, 0.9996793501496366, 0.9994655835827276, 0.9998931167165456, 0.999786233433091, 0.9998931167165456, 0.9996793501496366, 0.9995724668661822, 0.9995724668661822, 0.999786233433091, 1.0, 0.9995724668661822, 0.999786233433091, 0.9995724668661822, 1.0, 0.9995724668661822, 0.9995724668661822, 1.0, 0.999786233433091, 1.0, 0.999786233433091, 0.9995724668661822, 0.999786233433091, 0.999786233433091, 0.9995724668661822, 0.9998931167165456, 0.9995724668661822, 0.9994655835827276, 0.9994655835827276, 0.9996793501496366, 0.9998931167165456, 0.9996793501496366, 0.999786233433091, 0.9994655835827276, 0.999786233433091, 0.999786233433091]], 'val': [[0.5371633157745346, 0.4555836750207331, 0.42389412255254144, 0.42239676369081236, 0.4219072946031232, 0.45259838480230463, 0.48041226924831204, 0.5039739427759601, 0.5284290664298902, 0.5185902233001839, 0.5227540777157645, 0.5308377301369059, 0.5399450045287387, 0.540751353438128, 0.5385378230170614, 0.5407539891256699, 0.5439239594297455, 0.5453731401460756, 0.5410268418510734, 0.5446437269560377, 0.5497759564734547, 0.5476039092338778, 0.5486979640794042, 0.5490329675872592, 0.5502685991829865, 0.552306999598784, 0.5493288276420354, 0.5520634080859405, 0.5488257250635943, 0.5489476761032942, 0.5497641171555476, 0.5485483306992479, 0.5532567931034492, 0.5461477998348393, 0.5435854161617664, 0.5542481431442813, 0.5508557786062542, 0.5514590744649596, 0.5498338831696793, 0.5479774458584915, 0.5532409748500119, 0.5497725840636117, 0.5516194357285171, 0.5526139123933901, 0.5493243879375143, 0.5515953734890222, 0.5495183545347853, 0.5566062410270272, 0.5547952709137028, 0.5600853771622282, 0.5526820827051243, 0.5555987967794476, 0.5484153364462997, 0.5478435008527118, 0.5571096414699158, 0.5548969560566264, 0.5480241511943941, 0.5500556943768444, 0.5565210216275287, 0.5468173470342166], [0.4821523708044752, 0.5301012253596165, 0.5530101225359616, 0.5679275439531166, 0.5711241342567928, 0.5428875865743207, 0.5460841768779968, 0.5354288758657432, 0.5348961108151306, 0.5492807671816728, 0.5530101225359616, 0.5535428875865743, 0.5428875865743207, 0.5418220564730953, 0.5418220564730953, 0.5503462972828982, 0.5503462972828982, 0.5487480021310602, 0.5439531166755461, 0.554075652637187, 0.5492807671816728, 0.5503462972828982, 0.5492807671816728, 0.5466169419286094, 0.5503462972828982, 0.5476824720298349, 0.5503462972828982, 0.5508790623335109, 0.5471497069792222, 0.5514118273841236, 0.5482152370804475, 0.5364944059669685, 0.5423548215237081, 0.5546084176877997, 0.5471497069792222, 0.5503462972828982, 0.5460841768779968, 0.5471497069792222, 0.5503462972828982, 0.5487480021310602, 0.5450186467767715, 0.5482152370804475, 0.5551411827384124, 0.5482152370804475, 0.5503462972828982, 0.5444858817261587, 0.5434203516249334, 0.5471497069792222, 0.5519445924347363, 0.5444858817261587, 0.5412892914224827, 0.5492807671816728, 0.5460841768779968, 0.5498135322322856, 0.5450186467767715, 0.5492807671816728, 0.5519445924347363, 0.552477357485349, 0.537559936068194, 0.5466169419286094]]}
Data Augmentation Initialized with strategy SAL_S

Testing MAP... 
0 / 2573 images processed.
500 / 2573 images processed.
1000 / 2573 images processed.
1500 / 2573 images processed.
2000 / 2573 images processed.
2500 / 2573 images processed.
Prediction Complete... 
Number of samples used for testing = 2573 
Number of GT values = 2573
Run Time : 71.981575 seconds

AP = 0.768506 
mAP_macro = 0.620403 
mAP_weighted = 0.648048 
mAP_micro = 0.638048 

Per Class :  [ 0.54919352  0.82548521  0.57733395  0.58825061  0.84590516  0.59114322
  0.58142182  0.44366081  0.69629822  0.37431074  0.76993811  0.88917991
  0.26987964  0.68363892]
Confusion : [[ 136.    1.    7.    3.    7.    7.   29.   10.    6.   25.    9.    2.
    10.    4.]
 [   0.  444.    0.   27.   16.    8.   18.    2.   13.   34.   14.    8.
    16.   12.]
 [   3.    2.   43.    6.    0.    3.    1.    0.    3.   11.    1.    3.
     2.    6.]
 [   4.    2.    4.  124.    4.    9.   10.    2.    3.   21.    3.    2.
     7.    3.]
 [   2.    1.    0.    0.  150.    0.    3.    0.    2.    1.    1.    0.
     0.    0.]
 [   7.    7.    6.    4.    4.  102.    9.   13.    4.   16.   12.    6.
    22.    9.]
 [  19.   12.    0.    9.   25.    6.  301.    8.   17.   27.   27.    2.
    25.    2.]
 [   5.    4.    2.    5.    1.   11.    6.   66.    2.   23.   12.    2.
    20.    8.]
 [   5.    5.    1.    4.    8.    2.   12.    1.  136.   11.    8.    3.
     6.    3.]
 [  15.   11.    4.   17.   17.   11.   45.    8.   17.  216.   14.    7.
    31.    7.]
 [  21.   22.    2.    9.   23.    5.   66.   14.   25.   58.  429.    5.
    31.    5.]
 [   1.    5.    1.    5.    2.    4.    2.    6.    3.   17.    6.  176.
     2.    3.]
 [   7.   10.    1.   10.   10.    7.   18.    7.   10.   10.   19.    3.
    68.    4.]
 [   0.    4.    1.    5.    3.    0.    1.    1.    1.    4.    1.    1.
     3.   80.]]
$ python -W ignore CNN_Master.py --cuda --datapath /media/koustav/Naihati/Dataset/AVA/AVA_STYLE_FOUR_CHANNEL/ --dataset AVAStyle_Double_Column_Test --model TCD_ResNet18_SAL_2_Col --save /media/koustav/Naihati/CNN_Models/CAM_STYLE_3/ --batch_size 32 --epochs 60 --lr 0.001 --testDataPath /media/koustav/Naihati/Dataset/AVA/AVAStyleTestData_4_Channels/ --testLabels /media/koustav/Naihati/Dataset/AVA/style_image_lists/test.multilab --testIds /media/koustav/Naihati/Dataset/AVA/style_image_lists/test.jpgl --aug_train SAL_RC --aug_test SAL_RC --withTesting --dr 0.0 --pretrained --csv 6C_2C_25_Aug.csv
Namespace(aug_test='SAL_RC', aug_train='SAL_RC', batch_size=32, csv='6C_2C_25_Aug.csv', cuda=True, datapath='/media/koustav/Naihati/Dataset/AVA/AVA_STYLE_FOUR_CHANNEL/', dataset='AVAStyle_Double_Column_Test', dr=0.0, epochs=60, fiftyPatch=False, freeze=False, lr=0.001, model='TCD_ResNet18_SAL_2_Col', pretrained=True, save='/media/koustav/Naihati/CNN_Models/CAM_STYLE_3/', testDataPath='/media/koustav/Naihati/Dataset/AVA/AVAStyleTestData_4_Channels/', testIds='/media/koustav/Naihati/Dataset/AVA/style_image_lists/test.jpgl', testLabels='/media/koustav/Naihati/Dataset/AVA/style_image_lists/test.multilab', tiny=False, withTesting=True)
Data Augmentation Initialized with strategy SAL_RC
Traceback (most recent call last):
  File "CNN_Master.py", line 378, in <module>
    num_epochs=args.epochs);
  File "CNN_Master.py", line 183, in train_model
    for count, data in enumerate(dset_loaders[phase]):
  File "/home/koustav/Desktop/IPA/intelligent_photograph_assesment/venv/local/lib/python2.7/site-packages/torch/utils/data/dataloader.py", line 195, in __next__
    idx, batch = self.data_queue.get()
  File "/usr/lib/python2.7/multiprocessing/queues.py", line 376, in get
    return recv()
  File "/home/koustav/Desktop/IPA/intelligent_photograph_assesment/venv/local/lib/python2.7/site-packages/torch/multiprocessing/queue.py", line 22, in recv
    return pickle.loads(buf)
  File "/usr/lib/python2.7/pickle.py", line 1382, in loads
    return Unpickler(file).load()
  File "/usr/lib/python2.7/pickle.py", line 858, in load
    dispatch[key](self)
  File "/usr/lib/python2.7/pickle.py", line 1133, in load_reduce
    value = func(*args)
  File "/home/koustav/Desktop/IPA/intelligent_photograph_assesment/venv/local/lib/python2.7/site-packages/torch/multiprocessing/reductions.py", line 68, in rebuild_storage_fd
    fd = multiprocessing.reduction.rebuild_handle(df)
  File "/usr/lib/python2.7/multiprocessing/reduction.py", line 155, in rebuild_handle
    conn = Client(address, authkey=current_process().authkey)
  File "/usr/lib/python2.7/multiprocessing/connection.py", line 169, in Client
    c = SocketClient(address)
  File "/usr/lib/python2.7/multiprocessing/connection.py", line 304, in SocketClient
    s.connect(address)
  File "/usr/lib/python2.7/socket.py", line 224, in meth
    return getattr(self._sock,name)(*args)
socket.error: [Errno 111] Connection refused
$ python -W ignore CNN_Master.py --cuda --datapath /media/koustav/Naihati/Dataset/AVA/AVA_STYLE_FOUR_CHANNEL/ --dataset AVAStyle_Double_Column_Test --model TCD_ResNet18_SAL_2_Col --save /media/koustav/Naihati/CNN_Models/CAM_STYLE_3/ --batch_size 32 --epochs 60 --lr 0.001 --testDataPath /media/koustav/Naihati/Dataset/AVA/AVAStyleTestData_4_Channels/ --testLabels /media/koustav/Naihati/Dataset/AVA/style_image_lists/test.multilab --testIds /media/koustav/Naihati/Dataset/AVA/style_image_lists/test.jpgl --aug_train SAL_SC --aug_test SAL_SC --withTesting --dr 0.0 --pretrained --csv 6C_2C_25_Aug.csv
Namespace(aug_test='SAL_SC', aug_train='SAL_SC', batch_size=32, csv='6C_2C_25_Aug.csv', cuda=True, datapath='/media/koustav/Naihati/Dataset/AVA/AVA_STYLE_FOUR_CHANNEL/', dataset='AVAStyle_Double_Column_Test', dr=0.0, epochs=60, fiftyPatch=False, freeze=False, lr=0.001, model='TCD_ResNet18_SAL_2_Col', pretrained=True, save='/media/koustav/Naihati/CNN_Models/CAM_STYLE_3/', testDataPath='/media/koustav/Naihati/Dataset/AVA/AVAStyleTestData_4_Channels/', testIds='/media/koustav/Naihati/Dataset/AVA/style_image_lists/test.jpgl', testLabels='/media/koustav/Naihati/Dataset/AVA/style_image_lists/test.multilab', tiny=False, withTesting=True)
Data Augmentation Initialized with strategy SAL_SC
Epoch 0 || train Loss: 0.0670 || Acc: 0.3156 || Epoch 0 || val Loss: 0.0536 || Acc: 0.4731 || 
Epoch 1 || train Loss: 0.0495 || Acc: 0.4980 || Epoch 1 || val Loss: 0.0450 || Acc: 0.5344 || 
Epoch 2 || train Loss: 0.0409 || Acc: 0.5868 || Epoch 2 || val Loss: 0.0425 || Acc: 0.5626 || 
Epoch 3 || train Loss: 0.0338 || Acc: 0.6631 || Epoch 3 || val Loss: 0.0418 || Acc: 0.5621 || 
Epoch 4 || train Loss: 0.0267 || Acc: 0.7381 || Epoch 4 || val Loss: 0.0426 || Acc: 0.5551 || 
Epoch 5 || train Loss: 0.0196 || Acc: 0.8241 || Epoch 5 || val Loss: 0.0451 || Acc: 0.5264 || 
Epoch 6 || train Loss: 0.0127 || Acc: 0.9047 || Epoch 6 || val Loss: 0.0489 || Acc: 0.5216 || 
Epoch 7 || train Loss: 0.0075 || Acc: 0.9574 || Epoch 7 || val Loss: 0.0516 || Acc: 0.5274 || 
Epoch     7: reducing learning rate of group 0 to 5.0000e-04.
Epoch 8 || train Loss: 0.0042 || Acc: 0.9860 || Epoch 8 || val Loss: 0.0518 || Acc: 0.5306 || 
Epoch 9 || train Loss: 0.0030 || Acc: 0.9938 || Epoch 9 || val Loss: 0.0525 || Acc: 0.5397 || 
Epoch 10 || train Loss: 0.0023 || Acc: 0.9966 || Epoch 10 || val Loss: 0.0537 || Acc: 0.5349 || 
Epoch 11 || train Loss: 0.0019 || Acc: 0.9968 || Epoch 11 || val Loss: 0.0544 || Acc: 0.5242 || 
Epoch    11: reducing learning rate of group 0 to 2.5000e-04.
Epoch 12 || train Loss: 0.0015 || Acc: 0.9983 || Epoch 12 || val Loss: 0.0550 || Acc: 0.5226 || 
Epoch 13 || train Loss: 0.0014 || Acc: 0.9991 || Epoch 13 || val Loss: 0.0552 || Acc: 0.5221 || 
Epoch 14 || train Loss: 0.0013 || Acc: 0.9994 || Epoch 14 || val Loss: 0.0555 || Acc: 0.5269 || 
Epoch 15 || train Loss: 0.0012 || Acc: 0.9988 || Epoch 15 || val Loss: 0.0562 || Acc: 0.5232 || 
Epoch    15: reducing learning rate of group 0 to 1.2500e-04.
Epoch 16 || train Loss: 0.0011 || Acc: 0.9996 || Epoch 16 || val Loss: 0.0560 || Acc: 0.5221 || 
Epoch 17 || train Loss: 0.0010 || Acc: 0.9995 || Epoch 17 || val Loss: 0.0561 || Acc: 0.5210 || 
Epoch 18 || train Loss: 0.0011 || Acc: 0.9995 || Epoch 18 || val Loss: 0.0562 || Acc: 0.5285 || 
Epoch 19 || train Loss: 0.0010 || Acc: 0.9996 || Epoch 19 || val Loss: 0.0573 || Acc: 0.5184 || 
Epoch    19: reducing learning rate of group 0 to 6.2500e-05.
Epoch 20 || train Loss: 0.0009 || Acc: 0.9994 || Epoch 20 || val Loss: 0.0559 || Acc: 0.5312 || 
Epoch 21 || train Loss: 0.0009 || Acc: 0.9998 || Epoch 21 || val Loss: 0.0562 || Acc: 0.5253 || 
Epoch 22 || train Loss: 0.0010 || Acc: 0.9996 || Epoch 22 || val Loss: 0.0564 || Acc: 0.5290 || 
Epoch 23 || train Loss: 0.0010 || Acc: 0.9990 || Epoch 23 || val Loss: 0.0564 || Acc: 0.5216 || 
Epoch    23: reducing learning rate of group 0 to 3.1250e-05.
Epoch 24 || train Loss: 0.0010 || Acc: 0.9994 || Epoch 24 || val Loss: 0.0565 || Acc: 0.5269 || 
Epoch 25 || train Loss: 0.0009 || Acc: 0.9994 || Epoch 25 || val Loss: 0.0569 || Acc: 0.5232 || 
Epoch 26 || train Loss: 0.0009 || Acc: 0.9995 || Epoch 26 || val Loss: 0.0562 || Acc: 0.5306 || 
Epoch 27 || train Loss: 0.0009 || Acc: 0.9993 || Epoch 27 || val Loss: 0.0564 || Acc: 0.5264 || 
Epoch    27: reducing learning rate of group 0 to 1.5625e-05.
Epoch 28 || train Loss: 0.0009 || Acc: 0.9995 || Epoch 28 || val Loss: 0.0564 || Acc: 0.5253 || 
Epoch 29 || train Loss: 0.0008 || Acc: 0.9998 || Epoch 29 || val Loss: 0.0565 || Acc: 0.5264 || 
Epoch 30 || train Loss: 0.0009 || Acc: 0.9997 || Epoch 30 || val Loss: 0.0563 || Acc: 0.5312 || 
Epoch 31 || train Loss: 0.0009 || Acc: 0.9995 || Epoch 31 || val Loss: 0.0562 || Acc: 0.5258 || 
Epoch    31: reducing learning rate of group 0 to 7.8125e-06.
Epoch 32 || train Loss: 0.0009 || Acc: 0.9998 || Epoch 32 || val Loss: 0.0565 || Acc: 0.5333 || 
Epoch 33 || train Loss: 0.0008 || Acc: 0.9996 || Epoch 33 || val Loss: 0.0560 || Acc: 0.5301 || 
Epoch 34 || train Loss: 0.0009 || Acc: 0.9999 || Epoch 34 || val Loss: 0.0565 || Acc: 0.5312 || 
Epoch 35 || train Loss: 0.0009 || Acc: 0.9995 || Epoch 35 || val Loss: 0.0567 || Acc: 0.5258 || 
Epoch    35: reducing learning rate of group 0 to 3.9063e-06.
Epoch 36 || train Loss: 0.0009 || Acc: 0.9994 || Epoch 36 || val Loss: 0.0574 || Acc: 0.5210 || 
Epoch 37 || train Loss: 0.0009 || Acc: 0.9995 || Epoch 37 || val Loss: 0.0565 || Acc: 0.5306 || 
Epoch 38 || train Loss: 0.0009 || Acc: 0.9996 || Epoch 38 || val Loss: 0.0562 || Acc: 0.5306 || 
Epoch 39 || train Loss: 0.0008 || Acc: 0.9999 || Epoch 39 || val Loss: 0.0561 || Acc: 0.5248 || 
Epoch    39: reducing learning rate of group 0 to 1.9531e-06.
Epoch 40 || train Loss: 0.0009 || Acc: 0.9996 || Epoch 40 || val Loss: 0.0566 || Acc: 0.5274 || 
Epoch 41 || train Loss: 0.0009 || Acc: 0.9997 || Epoch 41 || val Loss: 0.0564 || Acc: 0.5322 || 
Epoch 42 || train Loss: 0.0009 || Acc: 0.9995 || Epoch 42 || val Loss: 0.0566 || Acc: 0.5264 || 
Epoch 43 || train Loss: 0.0009 || Acc: 0.9991 || Epoch 43 || val Loss: 0.0568 || Acc: 0.5242 || 
Epoch    43: reducing learning rate of group 0 to 9.7656e-07.
Epoch 44 || train Loss: 0.0009 || Acc: 0.9998 || Epoch 44 || val Loss: 0.0566 || Acc: 0.5290 || 
Epoch 45 || train Loss: 0.0008 || Acc: 0.9998 || Epoch 45 || val Loss: 0.0559 || Acc: 0.5317 || 
Epoch 46 || train Loss: 0.0009 || Acc: 0.9993 || Epoch 46 || val Loss: 0.0567 || Acc: 0.5290 || 
Epoch 47 || train Loss: 0.0008 || Acc: 0.9996 || Epoch 47 || val Loss: 0.0562 || Acc: 0.5258 || 
Epoch    47: reducing learning rate of group 0 to 4.8828e-07.
Epoch 48 || train Loss: 0.0009 || Acc: 0.9998 || Epoch 48 || val Loss: 0.0566 || Acc: 0.5296 || 
Epoch 49 || train Loss: 0.0009 || Acc: 0.9997 || Epoch 49 || val Loss: 0.0568 || Acc: 0.5194 || 
Epoch 50 || train Loss: 0.0008 || Acc: 0.9999 || Epoch 50 || val Loss: 0.0567 || Acc: 0.5189 || 
Epoch 51 || train Loss: 0.0009 || Acc: 0.9996 || Epoch 51 || val Loss: 0.0564 || Acc: 0.5248 || 
Epoch    51: reducing learning rate of group 0 to 2.4414e-07.
Epoch 52 || train Loss: 0.0009 || Acc: 0.9994 || Epoch 52 || val Loss: 0.0566 || Acc: 0.5226 || 
Epoch 53 || train Loss: 0.0008 || Acc: 0.9999 || Epoch 53 || val Loss: 0.0563 || Acc: 0.5312 || 
Epoch 54 || train Loss: 0.0009 || Acc: 0.9996 || Epoch 54 || val Loss: 0.0565 || Acc: 0.5333 || 
Epoch 55 || train Loss: 0.0008 || Acc: 0.9997 || Epoch 55 || val Loss: 0.0564 || Acc: 0.5216 || 
Epoch    55: reducing learning rate of group 0 to 1.2207e-07.
Epoch 56 || train Loss: 0.0008 || Acc: 0.9997 || Epoch 56 || val Loss: 0.0564 || Acc: 0.5306 || 
Epoch 57 || train Loss: 0.0008 || Acc: 0.9994 || Epoch 57 || val Loss: 0.0570 || Acc: 0.5248 || 
Epoch 58 || train Loss: 0.0008 || Acc: 0.9994 || Epoch 58 || val Loss: 0.0567 || Acc: 0.5253 || 
Epoch 59 || train Loss: 0.0008 || Acc: 0.9998 || Epoch 59 || val Loss: 0.0562 || Acc: 0.5258 || 
Epoch    59: reducing learning rate of group 0 to 6.1035e-08.

Training complete in 108m 58s
Best val Acc: 0.562600
{'train': [[0.6703929105545017, 0.4948197783645069, 0.40930218736602486, 0.33839783017683256, 0.267312165991574, 0.19620511969117435, 0.126559014801237, 0.07463492802692663, 0.04165487121050049, 0.029504060571636587, 0.023126819247858497, 0.019151604558767646, 0.015283571154057546, 0.013838418508159547, 0.01277944887341241, 0.01212143497290699, 0.010556577855753767, 0.010233912274540872, 0.010595787858073658, 0.010093900009945143, 0.009441918623006564, 0.0092207529837311, 0.009555472749874295, 0.009861253647913328, 0.009782377832743184, 0.009175687502749509, 0.009152335315853573, 0.00935184832641639, 0.00897310953706745, 0.008402185047912568, 0.008644921431981279, 0.008975455864735167, 0.008575822361683224, 0.00834143552538955, 0.008599519396743084, 0.008784249057024143, 0.008727607069208153, 0.008556424166693449, 0.00859168219185375, 0.008190362537044804, 0.008948625158160198, 0.008877726226357019, 0.008693659521222063, 0.009049057041530988, 0.008553751274886015, 0.008433232308485254, 0.008704879716541993, 0.00826088405425679, 0.008503235335047299, 0.008775682951864802, 0.008390225508290512, 0.008556085283134982, 0.008625057249203764, 0.0084236881354455, 0.008660862935040434, 0.008366498307776074, 0.008040701583435568, 0.008346567821520524, 0.008298984325406081, 0.008197677727468556], [0.3156263360410432, 0.49796921761436513, 0.5867892261650278, 0.6631038905515177, 0.7381359555365541, 0.8240701154339461, 0.9046601111586148, 0.9573535699016674, 0.9859982898674647, 0.9938007695596409, 0.9965797349294571, 0.9967935014963659, 0.9982898674647285, 0.9991449337323642, 0.9993587002992732, 0.9988242838820008, 0.9995724668661822, 0.9994655835827276, 0.9994655835827276, 0.9995724668661822, 0.9993587002992732, 0.999786233433091, 0.9995724668661822, 0.9990380504489098, 0.9993587002992732, 0.9993587002992732, 0.9994655835827276, 0.9992518170158188, 0.9994655835827276, 0.999786233433091, 0.9996793501496366, 0.9994655835827276, 0.999786233433091, 0.9995724668661822, 0.9998931167165456, 0.9994655835827276, 0.9993587002992732, 0.9994655835827276, 0.9995724668661822, 0.9998931167165456, 0.9995724668661822, 0.9996793501496366, 0.9994655835827276, 0.9991449337323642, 0.999786233433091, 0.999786233433091, 0.9992518170158188, 0.9995724668661822, 0.999786233433091, 0.9996793501496366, 0.9998931167165456, 0.9995724668661822, 0.9993587002992732, 0.9998931167165456, 0.9995724668661822, 0.9996793501496366, 0.9996793501496366, 0.9993587002992732, 0.9993587002992732, 0.999786233433091]], 'val': [[0.5360278120432118, 0.45040400662063984, 0.42458853349446873, 0.4182958479059714, 0.4257269050443687, 0.45103512168502197, 0.489009015408995, 0.5159090425209855, 0.5184879300438093, 0.5253480454995141, 0.536885924903268, 0.543899814944097, 0.5502333549597064, 0.552249991265014, 0.554938803471081, 0.5615080434969911, 0.5598537281719242, 0.5612040718756397, 0.5620991126234759, 0.5733779998427703, 0.5586175840461134, 0.5621593850816129, 0.563970748960305, 0.5641267715011052, 0.5650579630852254, 0.5692095444058889, 0.5617320442301323, 0.5642468127787716, 0.5641950427946031, 0.564800550090422, 0.5626039252232921, 0.5620013740257056, 0.5653332374676403, 0.5596434749309599, 0.5646048306021592, 0.5666210331304568, 0.5738032785069136, 0.5654112595348327, 0.5617878249051028, 0.5605910830378342, 0.5662442596910098, 0.5640996855246493, 0.5664706973236929, 0.5679825664392226, 0.5663713944612441, 0.5594590196726357, 0.5666484176064656, 0.5620306708041696, 0.5657505252352406, 0.5676844374702913, 0.5665903000610587, 0.5643664463187509, 0.5660573141842874, 0.5633771098796904, 0.5653561749354156, 0.5642995970263148, 0.564052560701609, 0.5697201380528982, 0.5673080085755411, 0.562473726386902], [0.4730953649440597, 0.5343633457645178, 0.5625998934469899, 0.5620671283963772, 0.5551411827384124, 0.5263718700053277, 0.5215769845498135, 0.527437400106553, 0.5306339904102291, 0.5396909962706447, 0.5348961108151306, 0.5242408098028769, 0.5226425146510388, 0.5221097496004262, 0.5269046350559403, 0.5231752797016516, 0.5221097496004262, 0.5210442194992009, 0.5285029302077784, 0.5183803942461375, 0.5311667554608418, 0.5253063399041022, 0.529035695258391, 0.5215769845498135, 0.5269046350559403, 0.5231752797016516, 0.5306339904102291, 0.5263718700053277, 0.5253063399041022, 0.5263718700053277, 0.5311667554608418, 0.525839104954715, 0.5332978156632925, 0.5301012253596165, 0.5311667554608418, 0.525839104954715, 0.5210442194992009, 0.5306339904102291, 0.5306339904102291, 0.5247735748534896, 0.527437400106553, 0.5322322855620671, 0.5263718700053277, 0.5242408098028769, 0.529035695258391, 0.5316995205114544, 0.529035695258391, 0.525839104954715, 0.5295684603090037, 0.5194459243473628, 0.5189131592967501, 0.5247735748534896, 0.5226425146510388, 0.5311667554608418, 0.5332978156632925, 0.5215769845498135, 0.5306339904102291, 0.5247735748534896, 0.5253063399041022, 0.525839104954715]]}
Data Augmentation Initialized with strategy SAL_SC

Testing MAP... 
0 / 2573 images processed.
500 / 2573 images processed.
1000 / 2573 images processed.
1500 / 2573 images processed.
2000 / 2573 images processed.
2500 / 2573 images processed.
Prediction Complete... 
Number of samples used for testing = 2573 
Number of GT values = 2573
Run Time : 71.774043 seconds

AP = 0.770537 
mAP_macro = 0.609721 
mAP_weighted = 0.651413 
mAP_micro = 0.639836 

Per Class :  [ 0.58920625  0.86333642  0.39563652  0.63411465  0.88367353  0.50658281
  0.60690065  0.47235305  0.70869784  0.34853824  0.77541106  0.88512736
  0.23121745  0.63529248]
Confusion : [[ 125.    2.    8.    5.    7.   20.   31.   14.    5.   24.    3.    2.
     7.    5.]
 [   1.  446.    0.   30.   18.   11.   16.    5.   15.   22.    7.    7.
    19.   13.]
 [   0.    3.   29.    9.    0.   13.    1.    1.    4.   16.    1.    1.
     1.    6.]
 [   3.    2.    1.  139.    3.    7.    5.    3.    8.   14.    2.    5.
     3.    1.]
 [   0.    2.    0.    0.  150.    0.    3.    0.    1.    0.    3.    0.
     1.    0.]
 [   3.    7.    5.    4.    6.  136.    6.   10.    7.    7.    8.    1.
     9.    7.]
 [  11.    9.    0.    8.   29.   21.  313.   10.   14.   28.   13.    1.
    23.    1.]
 [   3.    3.    1.    7.    3.   19.    9.   71.    7.   14.    8.    1.
     7.    6.]
 [   2.   10.    1.    8.    3.    5.   12.    3.  138.    7.    5.    2.
     2.    5.]
 [   7.   20.    7.   25.   14.   22.   60.   12.   14.  204.    6.    7.
    21.    9.]
 [  17.   21.    3.    8.   15.   18.   90.   19.   27.   66.  402.    4.
    30.    0.]
 [   1.    6.    1.    4.    2.   18.    4.    7.    1.   10.    2.  173.
     2.    4.]
 [   5.    8.    2.    8.    9.   17.   22.    8.   14.   18.   16.    3.
    57.    3.]
 [   0.    6.    1.    4.    2.    1.    3.    0.    2.    4.    1.    2.
     0.   81.]]
$ python -W ignore CNN_Master.py --cuda --datapath /media/koustav/Naihati/Dataset/AVA/AVA_STYLE_FOUR_CHANNEL/ --dataset AVAStyle_Double_Column_Test --model TCD_ResNet18_SAL_2_Col --save /media/koustav/Naihati/CNN_Models/CAM_STYLE_3/ --batch_size 32 --epochs 60 --lr 0.001 --testDataPath /media/koustav/Naihati/Dataset/AVA/AVAStyleTestData_4_Channels/ --testLabels /media/koustav/Naihati/Dataset/AVA/style_image_lists/test.multilab --testIds /media/koustav/Naihati/Dataset/AVA/style_image_lists/test.jpgl --aug_train SAL_RSC --aug_test SAL_RSC --withTesting --dr 0.0 --pretrained --csv 6C_2C_25_Aug.csv
Namespace(aug_test='SAL_RSC', aug_train='SAL_RSC', batch_size=32, csv='6C_2C_25_Aug.csv', cuda=True, datapath='/media/koustav/Naihati/Dataset/AVA/AVA_STYLE_FOUR_CHANNEL/', dataset='AVAStyle_Double_Column_Test', dr=0.0, epochs=60, fiftyPatch=False, freeze=False, lr=0.001, model='TCD_ResNet18_SAL_2_Col', pretrained=True, save='/media/koustav/Naihati/CNN_Models/CAM_STYLE_3/', testDataPath='/media/koustav/Naihati/Dataset/AVA/AVAStyleTestData_4_Channels/', testIds='/media/koustav/Naihati/Dataset/AVA/style_image_lists/test.jpgl', testLabels='/media/koustav/Naihati/Dataset/AVA/style_image_lists/test.multilab', tiny=False, withTesting=True)
Data Augmentation Initialized with strategy SAL_RSC
Traceback (most recent call last):
  File "CNN_Master.py", line 378, in <module>
    num_epochs=args.epochs);
  File "CNN_Master.py", line 183, in train_model
    for count, data in enumerate(dset_loaders[phase]):
  File "/home/koustav/Desktop/IPA/intelligent_photograph_assesment/venv/local/lib/python2.7/site-packages/torch/utils/data/dataloader.py", line 201, in __next__
    return self._process_next_batch(batch)
  File "/home/koustav/Desktop/IPA/intelligent_photograph_assesment/venv/local/lib/python2.7/site-packages/torch/utils/data/dataloader.py", line 221, in _process_next_batch
    raise batch.exc_type(batch.exc_msg)
bdb.BdbQuit: Traceback (most recent call last):
  File "/home/koustav/Desktop/IPA/intelligent_photograph_assesment/venv/local/lib/python2.7/site-packages/torch/utils/data/dataloader.py", line 40, in _worker_loop
    samples = collate_fn([dataset[i] for i in batch_indices])
  File "../utils/GhosalkImageFolder.py", line 183, in __getitem__
    img = self.transform(img)
  File "../utils/TCD_transforms.py", line 40, in __call__
    img = t(img)
  File "../utils/TCD_transforms.py", line 660, in __call__
    return cv2.resize(img,(self.size, self.size))
  File "../utils/TCD_transforms.py", line 660, in __call__
    return cv2.resize(img,(self.size, self.size))
  File "/usr/lib/python2.7/bdb.py", line 49, in trace_dispatch
    return self.dispatch_line(frame)
  File "/usr/lib/python2.7/bdb.py", line 68, in dispatch_line
    if self.quitting: raise BdbQuit
BdbQuit


Experiment ended at :  Thu Oct 19 04:18:39 IST 2017 




Experiment started at :  Thu Oct 19 09:05:30 IST 2017 

$ python -W ignore CNN_Master.py --cuda --datapath /media/koustav/Naihati/Dataset/AVA/AVA_STYLE_FOUR_CHANNEL/ --dataset AVAStyle_Double_Column_Test --model TCD_ResNet18_SAL_2_Col --save /media/koustav/Naihati/CNN_Models/CAM_STYLE_3/ --batch_size 32 --epochs 60 --lr 0.001 --testDataPath /media/koustav/Naihati/Dataset/AVA/AVAStyleTestData_4_Channels/ --testLabels /media/koustav/Naihati/Dataset/AVA/style_image_lists/test.multilab --testIds /media/koustav/Naihati/Dataset/AVA/style_image_lists/test.jpgl --aug_train SAL_RC --aug_test SAL_RC --withTesting --dr 0.0 --pretrained --csv 6C_2C_25_Aug.csv
Namespace(aug_test='SAL_RC', aug_train='SAL_RC', batch_size=32, csv='6C_2C_25_Aug.csv', cuda=True, datapath='/media/koustav/Naihati/Dataset/AVA/AVA_STYLE_FOUR_CHANNEL/', dataset='AVAStyle_Double_Column_Test', dr=0.0, epochs=60, fiftyPatch=False, freeze=False, lr=0.001, model='TCD_ResNet18_SAL_2_Col', pretrained=True, save='/media/koustav/Naihati/CNN_Models/CAM_STYLE_3/', testDataPath='/media/koustav/Naihati/Dataset/AVA/AVAStyleTestData_4_Channels/', testIds='/media/koustav/Naihati/Dataset/AVA/style_image_lists/test.jpgl', testLabels='/media/koustav/Naihati/Dataset/AVA/style_image_lists/test.multilab', tiny=False, withTesting=True)
Data Augmentation Initialized with strategy SAL_RC


Experiment started at :  Thu Oct 19 09:18:16 IST 2017 

$ python -W ignore CNN_Master.py --cuda --datapath /media/koustav/Naihati/Dataset/AVA/AVA_STYLE_FOUR_CHANNEL/ --dataset AVAStyle_Double_Column_Test --model TCD_ResNet18_SAL_2_Col --save /media/koustav/Naihati/CNN_Models/CAM_STYLE_3/ --batch_size 32 --epochs 60 --lr 0.001 --testDataPath /media/koustav/Naihati/Dataset/AVA/AVAStyleTestData_4_Channels/ --testLabels /media/koustav/Naihati/Dataset/AVA/style_image_lists/test.multilab --testIds /media/koustav/Naihati/Dataset/AVA/style_image_lists/test.jpgl --aug_train SAL_RC --aug_test SAL_RC --withTesting --dr 0.0 --pretrained --csv 6C_2C_25_Aug.csv
Namespace(aug_test='SAL_RC', aug_train='SAL_RC', batch_size=32, csv='6C_2C_25_Aug.csv', cuda=True, datapath='/media/koustav/Naihati/Dataset/AVA/AVA_STYLE_FOUR_CHANNEL/', dataset='AVAStyle_Double_Column_Test', dr=0.0, epochs=60, fiftyPatch=False, freeze=False, lr=0.001, model='TCD_ResNet18_SAL_2_Col', pretrained=True, save='/media/koustav/Naihati/CNN_Models/CAM_STYLE_3/', testDataPath='/media/koustav/Naihati/Dataset/AVA/AVAStyleTestData_4_Channels/', testIds='/media/koustav/Naihati/Dataset/AVA/style_image_lists/test.jpgl', testLabels='/media/koustav/Naihati/Dataset/AVA/style_image_lists/test.multilab', tiny=False, withTesting=True)
Data Augmentation Initialized with strategy SAL_RC
