0.620,0.624,0.595,0.541,0.618,0.629,0.636,0.638,0.629
0.799,0.836,0.836,0.769,0.805,0.755,0.734,0.825,0.848
0.702,0.753,0.653,0.593,0.638,0.710,0.722,0.577,0.590
0.828,0.814,0.763,0.717,0.795,0.805,0.830,0.774,0.761
0.822,0.830,0.873,0.885,0.845,0.787,0.788,0.866,0.850
0.590,0.616,0.563,0.490,0.593,0.565,0.611,0.585,0.576
0.646,0.637,0.594,0.460,0.645,0.630,0.611,0.616,0.622
0.557,0.569,0.523,0.505,0.565,0.577,0.577,0.528,0.517
0.846,0.822,0.812,0.774,0.839,0.824,0.852,0.813,0.826
0.296,0.298,0.295,0.267,0.296,0.268,0.293,0.317,0.305
0.811,0.806,0.795,0.734,0.808,0.806,0.790,0.784,0.808
0.934,0.929,0.928,0.906,0.932,0.941,0.916,0.931,0.929
0.465,0.429,0.390,0.279,0.440,0.394,0.420,0.374,0.379
0.697,0.635,0.665,0.649,0.672,0.741,0.705,0.654,0.636
