\relax 
\providecommand\hyper@newdestlabel[2]{}
\providecommand\HyperFirstAtBeginDocument{\AtBeginDocument}
\HyperFirstAtBeginDocument{\ifx\hyper@anchor\@undefined
\global\let\oldcontentsline\contentsline
\gdef\contentsline#1#2#3#4{\oldcontentsline{#1}{#2}{#3}}
\global\let\oldnewlabel\newlabel
\gdef\newlabel#1#2{\newlabelxx{#1}#2}
\gdef\newlabelxx#1#2#3#4#5#6{\oldnewlabel{#1}{{#2}{#3}}}
\AtEndDocument{\ifx\hyper@anchor\@undefined
\let\contentsline\oldcontentsline
\let\newlabel\oldnewlabel
\fi}
\fi}
\global\let\hyper@last\relax 
\gdef\HyperFirstAtBeginDocument#1{#1}
\providecommand\HyField@AuxAddToFields[1]{}
\providecommand\HyField@AuxAddToCoFields[2]{}
\citation{griffin2007caltech}
\citation{everingham2010pascal}
\citation{deng2009imagenet}
\citation{Karayev2014}
\citation{murray2012ava}
\citation{beardsley1981aesthetics}
\citation{huang2016densely}
\citation{deng2009imagenet}
\citation{murray2012ava}
\citation{lu2015deep}
\citation{lu2014rapid}
\citation{lu2015deep}
\@writefile{toc}{\contentsline {section}{\numberline {1}\hskip -1em.\nobreakspace  {}Introduction}{1}{section.1}}
\newlabel{sec:intro}{{1}{1}{\hskip -1em.~Introduction}{section.1}{}}
\@writefile{brf}{\backcite{griffin2007caltech}{{1}{1}{figure.caption.1}}}
\@writefile{brf}{\backcite{everingham2010pascal}{{1}{1}{figure.caption.1}}}
\@writefile{brf}{\backcite{deng2009imagenet}{{1}{1}{figure.caption.1}}}
\@writefile{brf}{\backcite{Karayev2014,murray2012ava}{{1}{1}{figure.caption.1}}}
\@writefile{brf}{\backcite{beardsley1981aesthetics}{{1}{1}{figure.caption.1}}}
\@writefile{brf}{\backcite{huang2016densely}{{1}{1}{figure.caption.1}}}
\@writefile{brf}{\backcite{deng2009imagenet}{{1}{1}{figure.caption.1}}}
\@writefile{brf}{\backcite{murray2012ava}{{1}{1}{figure.caption.1}}}
\@writefile{brf}{\backcite{lu2015deep,lu2014rapid}{{1}{1}{figure.caption.1}}}
\citation{lu2014rapid}
\@writefile{lof}{\contentsline {figure}{\numberline {1}{\ignorespaces \textbf  {Applications} : Screen-shots from our web-based application. For each picture, the left column shows the photograph used and the right column shows the probability values for each attribute. They are ordered in descending order \textit  {i.e} the ones at the top $(>.900)$ are the most probable styles. \textbf  {\leavevmode {\color  {red}(a)}} This is one of the pictures of Ansel Adam's captures of the Yosemite National Park. It can be observed that the top two attributes are HDR and duotones, which are correct predictions. \textbf  {\leavevmode {\color  {red}(b)}} This is a shot from The Lord of the Rings movie. The rule of thirds (the line of the eyes match with the first horizontal line) and shallow depth of field are correct predictions. The image grain prediction is because of a high ISO value of the image. \textbf  {\leavevmode {\color  {red}(c)}} This is a shot from Majid Majidi's film The Colours of Paradise. We see that rule of thirds ( child's position), shallow depth of field, complementary colours (green background and reddish foreground), image grain (because of the video quality) are all correct predictions. \textbf  {\leavevmode {\color  {red}(d)}} An image from Flickr showing repetitive patterns and soft colours. This is one of the scenarios where the system fails. The styles corresponding to this photograph are none among HDR, Macro or Light on White. One of the drawbacks of our system is that the attribute space is limited to $14$, which is a small number when it comes to judging photographs. \relax }}{2}{figure.caption.1}}
\providecommand*\caption@xref[2]{\@setref\relax\@undefined{#1}}
\newlabel{fig:app}{{1}{2}{\textbf {Applications} : Screen-shots from our web-based application. For each picture, the left column shows the photograph used and the right column shows the probability values for each attribute. They are ordered in descending order \textit {i.e} the ones at the top $(>.900)$ are the most probable styles. \textbf {\textcolor {red}{(a)}} This is one of the pictures of Ansel Adam's captures of the Yosemite National Park. It can be observed that the top two attributes are HDR and duotones, which are correct predictions. \textbf {\textcolor {red}{(b)}} This is a shot from The Lord of the Rings movie. The rule of thirds (the line of the eyes match with the first horizontal line) and shallow depth of field are correct predictions. The image grain prediction is because of a high ISO value of the image. \textbf {\textcolor {red}{(c)}} This is a shot from Majid Majidi's film The Colours of Paradise. We see that rule of thirds ( child's position), shallow depth of field, complementary colours (green background and reddish foreground), image grain (because of the video quality) are all correct predictions. \textbf {\textcolor {red}{(d)}} An image from Flickr showing repetitive patterns and soft colours. This is one of the scenarios where the system fails. The styles corresponding to this photograph are none among HDR, Macro or Light on White. One of the drawbacks of our system is that the attribute space is limited to $14$, which is a small number when it comes to judging photographs. \relax }{figure.caption.1}{}}
\@writefile{brf}{\backcite{lu2015deep}{{2}{1}{figure.caption.1}}}
\@writefile{brf}{\backcite{lu2014rapid}{{2}{1}{figure.caption.1}}}
\citation{lu2007survey}
\citation{schmidhuber2015deep}
\citation{yilmaz2006object}
\citation{datta2006studying}
\citation{ke2006design}
\citation{luo2008photo}
\citation{obrador2012towards}
\citation{dhar2011high}
\citation{joshi2011aesthetics}
\citation{san2012leveraging}
\citation{Karayev2014}
\citation{aydin2015automated}
\citation{murray2012ava}
\citation{krizhevsky2012imagenet}
\citation{simonyan2014very}
\citation{girshick2015fast}
\citation{ren2015faster}
\citation{noh2015learning}
\citation{karpathy2015deep}
\citation{xu2015show}
\citation{antol2015vqa}
\citation{huang2016densely}
\citation{he2016deep}
\citation{he2016deep}
\citation{huang2016densely}
\citation{lu2014rapid}
\citation{lu2015deep}
\citation{kong2016photo}
\citation{mai2016composition}
\citation{1707.03981}
\citation{lu2015deep}
\citation{lu2014rapid}
\citation{Karayev2014}
\citation{Karayev2014}
\citation{lu2014rapid}
\citation{lu2015deep}
\citation{Karayev2014}
\citation{lu2014rapid}
\citation{lu2015deep}
\@writefile{toc}{\contentsline {section}{\numberline {2}\hskip -1em.\nobreakspace  {}Related Work}{3}{section.2}}
\newlabel{sec:reltd}{{2}{3}{\hskip -1em.~Related Work}{section.2}{}}
\@writefile{brf}{\backcite{lu2007survey,schmidhuber2015deep}{{3}{2}{section.2}}}
\@writefile{brf}{\backcite{yilmaz2006object}{{3}{2}{section.2}}}
\@writefile{brf}{\backcite{datta2006studying,ke2006design,luo2008photo}{{3}{2}{section.2}}}
\@writefile{brf}{\backcite{ obrador2012towards,dhar2011high,joshi2011aesthetics,san2012leveraging,Karayev2014}{{3}{2}{section.2}}}
\@writefile{brf}{\backcite{aydin2015automated}{{3}{2}{section.2}}}
\@writefile{brf}{\backcite{murray2012ava}{{3}{2}{section.2}}}
\@writefile{brf}{\backcite{krizhevsky2012imagenet,simonyan2014very}{{3}{2}{section.2}}}
\@writefile{brf}{\backcite{girshick2015fast,ren2015faster}{{3}{2}{section.2}}}
\@writefile{brf}{\backcite{noh2015learning}{{3}{2}{section.2}}}
\@writefile{brf}{\backcite{karpathy2015deep,xu2015show,antol2015vqa}{{3}{2}{section.2}}}
\@writefile{brf}{\backcite{huang2016densely,he2016deep}{{3}{2}{section.2}}}
\@writefile{brf}{\backcite{he2016deep}{{3}{2}{section.2}}}
\@writefile{brf}{\backcite{huang2016densely}{{3}{2}{section.2}}}
\@writefile{brf}{\backcite{lu2014rapid}{{3}{2}{section.2}}}
\@writefile{brf}{\backcite{lu2015deep}{{3}{2}{section.2}}}
\@writefile{brf}{\backcite{kong2016photo}{{3}{2}{section.2}}}
\@writefile{brf}{\backcite{mai2016composition}{{3}{2}{section.2}}}
\@writefile{brf}{\backcite{1707.03981}{{3}{2}{section.2}}}
\@writefile{brf}{\backcite{lu2015deep,lu2014rapid,Karayev2014}{{3}{2}{section.2}}}
\@writefile{brf}{\backcite{Karayev2014}{{3}{2}{section.2}}}
\@writefile{brf}{\backcite{lu2014rapid}{{3}{2}{section.2}}}
\@writefile{brf}{\backcite{lu2015deep}{{3}{2}{section.2}}}
\@writefile{brf}{\backcite{Karayev2014}{{3}{2}{section.2}}}
\@writefile{brf}{\backcite{lu2014rapid,lu2015deep}{{3}{2}{section.2}}}
\@writefile{toc}{\contentsline {section}{\numberline {3}\hskip -1em.\nobreakspace  {}Problem Statement}{3}{section.3}}
\newlabel{sec:problem}{{3}{3}{\hskip -1em.~Problem Statement}{section.3}{}}
\newlabel{eqn:phi}{{1}{3}{\hskip -1em.~Problem Statement}{equation.3.1}{}}
\citation{huang2016densely}
\citation{huang2016deep}
\citation{he2016deep}
\citation{srivastava2015training}
\citation{huang2016densely}
\citation{huang2016densely}
\citation{yosinski2014transferable}
\newlabel{eqn:loss}{{4}{4}{\hskip -1em.~Problem Statement}{equation.3.4}{}}
\@writefile{toc}{\contentsline {subsection}{\numberline {3.1}\hskip -1em.\nobreakspace  {}DenseNet}{4}{subsection.3.1}}
\@writefile{brf}{\backcite{huang2016densely}{{4}{3.1}{subsection.3.1}}}
\@writefile{brf}{\backcite{huang2016deep,he2016deep,srivastava2015training}{{4}{3.1}{subsection.3.1}}}
\@writefile{toc}{\contentsline {subsection}{\numberline {3.2}\hskip -1em.\nobreakspace  {}Transfer Learning}{4}{subsection.3.2}}
\@writefile{brf}{\backcite{yosinski2014transferable}{{4}{3.2}{subsection.3.2}}}
\@writefile{toc}{\contentsline {subsection}{\numberline {3.3}\hskip -1em.\nobreakspace  {}Data Augmentation}{4}{subsection.3.3}}
\newlabel{sec:archDataAug}{{3.3}{4}{\hskip -1em.~Data Augmentation}{subsection.3.3}{}}
\@writefile{lot}{\contentsline {table}{\numberline {1}{\ignorespaces \textbf  {DenseNet161 Architecture : } There are 161 layers in total. The input is received by the first layer (a $7 \times 7$ convolution with a stride size of $2$ and pad size of $3$), followed by a max pool ($3 \times 3$, stride size of $2$). Then the network has a dense block which is $n$ repetitions of the cell $(2,2)$. The value of $n$ is $6$ for the first dense block. The first dense block is followed by the first transition layer, which is specified in cell $(3,2)$. The dense and transition blocks are repeated $4$ times (with dense block units repeated with different values of $n$) and finally the architecture ends with a Classification layer.   The novelty in DenseNet is in introducing the Dense Blocks. Each unit within the dense block is densely connected \textit  {i.e} every $l^{th}$ unit receives as an input which is the concatenated output from all other $l-1$ units within the same block. This setting helps to prevent input information getting lost as the network grows deeper. Additionally, as mentioned in\nobreakspace  {}\cite  {huang2016densely}, the network has the advantage of fewer parameters and better regularization.\relax }}{4}{table.caption.2}}
\@writefile{brf}{\backcite{huang2016densely}{{4}{1}{table.caption.2}}}
\newlabel{tab:architecture}{{1}{4}{\textbf {DenseNet161 Architecture : } There are 161 layers in total. The input is received by the first layer (a $7 \times 7$ convolution with a stride size of $2$ and pad size of $3$), followed by a max pool ($3 \times 3$, stride size of $2$). Then the network has a dense block which is $n$ repetitions of the cell $(2,2)$. The value of $n$ is $6$ for the first dense block. The first dense block is followed by the first transition layer, which is specified in cell $(3,2)$. The dense and transition blocks are repeated $4$ times (with dense block units repeated with different values of $n$) and finally the architecture ends with a Classification layer. \\ The novelty in DenseNet is in introducing the Dense Blocks. Each unit within the dense block is densely connected \textit {i.e} every $l^{th}$ unit receives as an input which is the concatenated output from all other $l-1$ units within the same block. This setting helps to prevent input information getting lost as the network grows deeper. Additionally, as mentioned in~\cite {huang2016densely}, the network has the advantage of fewer parameters and better regularization.\relax }{table.caption.2}{}}
\citation{lu2014rapid}
\citation{lu2015deep}
\citation{murray2012ava}
\citation{lu2014rapid}
\citation{lu2015deep}
\citation{huang2016densely}
\citation{huang2016densely}
\citation{he2016deep}
\citation{simonyan2014very}
\citation{lu2014rapid}
\citation{lu2015deep}
\citation{Karayev2014}
\citation{lu2014rapid}
\@writefile{brf}{\backcite{lu2014rapid}{{5}{3.3}{subsection.3.3}}}
\@writefile{brf}{\backcite{lu2015deep}{{5}{3.3}{subsection.3.3}}}
\@writefile{toc}{\contentsline {section}{\numberline {4}\hskip -1em.\nobreakspace  {}Dataset}{5}{section.4}}
\newlabel{sec:dataset}{{4}{5}{\hskip -1em.~Dataset}{section.4}{}}
\@writefile{brf}{\backcite{murray2012ava}{{5}{4}{section.4}}}
\@writefile{toc}{\contentsline {section}{\numberline {5}\hskip -1em.\nobreakspace  {}Experiments}{5}{section.5}}
\newlabel{sec:results}{{5}{5}{\hskip -1em.~Experiments}{section.5}{}}
\@writefile{toc}{\contentsline {subsection}{\numberline {5.1}\hskip -1em.\nobreakspace  {}Style Classification}{5}{subsection.5.1}}
\@writefile{brf}{\backcite{lu2014rapid,lu2015deep}{{5}{5.1}{subsection.5.1}}}
\@writefile{lot}{\contentsline {table}{\numberline {2}{\ignorespaces \textbf  {Style Attributes for AVA Dataset}\relax }}{5}{table.caption.4}}
\newlabel{tab:AVA}{{2}{5}{\textbf {Style Attributes for AVA Dataset}\relax }{table.caption.4}{}}
\newlabel{sec:ResStyleClass}{{5.1}{5}{\hskip -1em.~Style Classification}{subsection.5.1}{}}
\@writefile{toc}{\contentsline {subsubsection}{\numberline {5.1.1}Best Data-Augmentation}{5}{subsubsection.5.1.1}}
\@writefile{brf}{\backcite{huang2016densely}{{5}{5.1.1}{subsubsection.5.1.1}}}
\@writefile{brf}{\backcite{huang2016densely}{{5}{5.1.1}{subsubsection.5.1.1}}}
\@writefile{brf}{\backcite{he2016deep}{{5}{5.1.1}{subsubsection.5.1.1}}}
\@writefile{brf}{\backcite{simonyan2014very}{{5}{5.1.1}{subsubsection.5.1.1}}}
\@writefile{brf}{\backcite{lu2014rapid,lu2015deep,Karayev2014}{{5}{5.1.1}{subsubsection.5.1.1}}}
\@writefile{brf}{\backcite{lu2014rapid}{{5}{5.1.1}{subsubsection.5.1.1}}}
\citation{huang2016densely}
\citation{he2016deep}
\citation{simonyan2014very}
\citation{simonyan2014very}
\citation{lu2014rapid}
\citation{lu2015deep}
\citation{Karayev2014}
\@writefile{lof}{\contentsline {figure}{\numberline {2}{\ignorespaces Example images from the AVA dataset corresponding to 14 different styles. (L-R) \textbf  {Row 1 : } Complementary Colors, Duotones, HDR, Image Grain, Light On White, Long Exposure, Macro. \textbf  { Row 2 : } Motion Blur, Negative Image, Rule of Thirds, Shallow DOF, Silhouettes, Soft Focus, Vanishing Point\relax }}{6}{figure.caption.3}}
\newlabel{fig:ExampleImages}{{2}{6}{Example images from the AVA dataset corresponding to 14 different styles. (L-R) \textbf {Row 1 : } Complementary Colors, Duotones, HDR, Image Grain, Light On White, Long Exposure, Macro. \textbf { Row 2 : } Motion Blur, Negative Image, Rule of Thirds, Shallow DOF, Silhouettes, Soft Focus, Vanishing Point\relax }{figure.caption.3}{}}
\@writefile{toc}{\contentsline {subsubsection}{\numberline {5.1.2}Class-wise Precision Scores }{6}{subsubsection.5.1.2}}
\newlabel{sec:classwisepre}{{5.1.2}{6}{Class-wise Precision Scores}{subsubsection.5.1.2}{}}
\@writefile{toc}{\contentsline {subsubsection}{\numberline {5.1.3}Overfitting}{6}{subsubsection.5.1.3}}
\@writefile{lot}{\contentsline {table}{\numberline {3}{\ignorespaces \textbf  {Style Classification : Comparison of DenseNet161 for different augmentation strategies}\relax }}{6}{table.caption.5}}
\newlabel{tab:allAug}{{3}{6}{\textbf {Style Classification : Comparison of DenseNet161 for different augmentation strategies}\relax }{table.caption.5}{}}
\@writefile{lot}{\contentsline {table}{\numberline {5}{\ignorespaces \textbf  {Per Class Precision Score for 25 augmentation strategies using DenseNet161 :} The first $2$ rows correspond to the style attributes and the number of samples available for training the CNN. The following $25$ rows are divided into $5$ blocks corresponding to the five augmentation strategies in the same order as in Table\nobreakspace  {}\ref  {tab:allAug}. We observe that the precision scores for HDR, Motion Blur, Rule of Thirds, Soft Focus are lower in comparison to other attributes. We argue that the poor performance of HDR, Motion Blur and Soft Focus could be a result of less number of samples available for training.\relax }}{7}{table.caption.7}}
\newlabel{ref:PerClassPrecision}{{5}{7}{\textbf {Per Class Precision Score for 25 augmentation strategies using DenseNet161 :} The first $2$ rows correspond to the style attributes and the number of samples available for training the CNN. The following $25$ rows are divided into $5$ blocks corresponding to the five augmentation strategies in the same order as in Table~\ref {tab:allAug}. We observe that the precision scores for HDR, Motion Blur, Rule of Thirds, Soft Focus are lower in comparison to other attributes. We argue that the poor performance of HDR, Motion Blur and Soft Focus could be a result of less number of samples available for training.\relax }{table.caption.7}{}}
\@writefile{toc}{\contentsline {section}{\numberline {6}\hskip -1em.\nobreakspace  {}Applications}{7}{section.6}}
\newlabel{sec:app}{{6}{7}{\hskip -1em.~Applications}{section.6}{}}
\bibstyle{ieee}
\bibdata{egbib}
\bibcite{antol2015vqa}{1}
\bibcite{aydin2015automated}{2}
\bibcite{beardsley1981aesthetics}{3}
\bibcite{datta2006studying}{4}
\bibcite{deng2009imagenet}{5}
\@writefile{lot}{\contentsline {table}{\numberline {4}{\ignorespaces \textbf  {Style Classification : Different Networks with the best augmentation : } The first four rows correspond to our implementations of the top four networks in ImageNet classification. They use a $T_{rnc}$ augmentation, both during training and testing. The last three rows are the state of the art style classifiers, results reported from paper. \relax }}{8}{table.caption.6}}
\@writefile{brf}{\backcite{huang2016densely}{{8}{4}{table.caption.6}}}
\@writefile{brf}{\backcite{he2016deep}{{8}{4}{table.caption.6}}}
\@writefile{brf}{\backcite{simonyan2014very}{{8}{4}{table.caption.6}}}
\@writefile{brf}{\backcite{simonyan2014very}{{8}{4}{table.caption.6}}}
\@writefile{brf}{\backcite{lu2014rapid}{{8}{4}{table.caption.6}}}
\@writefile{brf}{\backcite{lu2015deep}{{8}{4}{table.caption.6}}}
\@writefile{brf}{\backcite{Karayev2014}{{8}{4}{table.caption.6}}}
\newlabel{tab:allNetStyle}{{4}{8}{\textbf {Style Classification : Different Networks with the best augmentation : } The first four rows correspond to our implementations of the top four networks in ImageNet classification. They use a $T_{rnc}$ augmentation, both during training and testing. The last three rows are the state of the art style classifiers, results reported from paper. \relax }{table.caption.6}{}}
\@writefile{lof}{\contentsline {figure}{\numberline {3}{\ignorespaces \textbf  {Precision scores for Rule of Thirds for 25 augmentation combinations using DenseNet161 :} Shown are 25 bins along $x$-axis, each one corresponding to an augmentation strategy from Table\nobreakspace  {}\ref  {tab:allAug}. The $y$ axis corresponds to the precision scores. The blue coloured bin is the one with maximum score. In this figure, we observe that the $T_w-T_w$ combination works best for Rule of Thirds, which supports the intuition that global properties are better preserved in warping. \relax }}{8}{figure.caption.8}}
\newlabel{fig:classWisePrecision}{{3}{8}{\textbf {Precision scores for Rule of Thirds for 25 augmentation combinations using DenseNet161 :} Shown are 25 bins along $x$-axis, each one corresponding to an augmentation strategy from Table~\ref {tab:allAug}. The $y$ axis corresponds to the precision scores. The blue coloured bin is the one with maximum score. In this figure, we observe that the $T_w-T_w$ combination works best for Rule of Thirds, which supports the intuition that global properties are better preserved in warping. \relax }{figure.caption.8}{}}
\@writefile{toc}{\contentsline {section}{\numberline {7}\hskip -1em.\nobreakspace  {}Conclusion}{8}{section.7}}
\@writefile{lof}{\contentsline {figure}{\numberline {4}{\ignorespaces \textbf  {Class-Wise Precision scores for $T_w$, $T_{rc}$ and $T_{rnc}$ using DenseNet161:} The $x$-axis correspond to the 14 attributes. Each attribute has three bins corresponding to the precision scores for the three augmentations. The comparison shows that $T_w$ performs worse and $T_{rnc}$ performs better than $T_{rc}$ in most cases. Only in the two global attributes, Rule of Thirds and Vanishing Lines, $T_w$ performs better, which is consistent with our intuitive assumption. \relax }}{8}{figure.caption.9}}
\newlabel{fig:overfitting}{{4}{8}{\textbf {Class-Wise Precision scores for $T_w$, $T_{rc}$ and $T_{rnc}$ using DenseNet161:} The $x$-axis correspond to the 14 attributes. Each attribute has three bins corresponding to the precision scores for the three augmentations. The comparison shows that $T_w$ performs worse and $T_{rnc}$ performs better than $T_{rc}$ in most cases. Only in the two global attributes, Rule of Thirds and Vanishing Lines, $T_w$ performs better, which is consistent with our intuitive assumption. \relax }{figure.caption.9}{}}
\bibcite{dhar2011high}{6}
\bibcite{everingham2010pascal}{7}
\bibcite{girshick2015fast}{8}
\bibcite{griffin2007caltech}{9}
\bibcite{he2016deep}{10}
\bibcite{huang2016densely}{11}
\bibcite{huang2016deep}{12}
\bibcite{joshi2011aesthetics}{13}
\bibcite{Karayev2014}{14}
\bibcite{karpathy2015deep}{15}
\bibcite{ke2006design}{16}
\bibcite{kong2016photo}{17}
\bibcite{krizhevsky2012imagenet}{18}
\bibcite{lu2007survey}{19}
\bibcite{lu2014rapid}{20}
\bibcite{lu2015deep}{21}
\bibcite{luo2008photo}{22}
\bibcite{mai2016composition}{23}
\bibcite{1707.03981}{24}
\bibcite{murray2012ava}{25}
\bibcite{noh2015learning}{26}
\bibcite{obrador2012towards}{27}
\bibcite{ren2015faster}{28}
\bibcite{san2012leveraging}{29}
\bibcite{schmidhuber2015deep}{30}
\bibcite{simonyan2014very}{31}
\bibcite{srivastava2015training}{32}
\bibcite{xu2015show}{33}
\bibcite{yilmaz2006object}{34}
\bibcite{yosinski2014transferable}{35}
