\relax 
\providecommand\hyper@newdestlabel[2]{}
\providecommand\HyperFirstAtBeginDocument{\AtBeginDocument}
\HyperFirstAtBeginDocument{\ifx\hyper@anchor\@undefined
\global\let\oldcontentsline\contentsline
\gdef\contentsline#1#2#3#4{\oldcontentsline{#1}{#2}{#3}}
\global\let\oldnewlabel\newlabel
\gdef\newlabel#1#2{\newlabelxx{#1}#2}
\gdef\newlabelxx#1#2#3#4#5#6{\oldnewlabel{#1}{{#2}{#3}}}
\AtEndDocument{\ifx\hyper@anchor\@undefined
\let\contentsline\oldcontentsline
\let\newlabel\oldnewlabel
\fi}
\fi}
\global\let\hyper@last\relax 
\gdef\HyperFirstAtBeginDocument#1{#1}
\providecommand\HyField@AuxAddToFields[1]{}
\providecommand\HyField@AuxAddToCoFields[2]{}
\citation{beardsley1981aesthetics}
\citation{yosinski2014transferable}
\citation{huang2016densely}
\citation{deng2009imagenet}
\citation{murray2012ava}
\citation{lu2015deep}
\citation{lu2014rapid}
\citation{lu2015deep}
\citation{lu2014rapid}
\@writefile{toc}{\contentsline {section}{\numberline {1}\hskip -1em.\nobreakspace  {}Introduction}{1}{section.1}}
\newlabel{sec:intro}{{1}{1}{\hskip -1em.~Introduction}{section.1}{}}
\@writefile{brf}{\backcite{beardsley1981aesthetics}{{1}{1}{section.1}}}
\@writefile{brf}{\backcite{yosinski2014transferable}{{1}{1}{section.1}}}
\@writefile{brf}{\backcite{huang2016densely}{{1}{1}{section.1}}}
\@writefile{brf}{\backcite{deng2009imagenet}{{1}{1}{section.1}}}
\@writefile{brf}{\backcite{murray2012ava}{{1}{1}{section.1}}}
\@writefile{brf}{\backcite{lu2015deep,lu2014rapid}{{1}{1}{section.1}}}
\@writefile{brf}{\backcite{lu2015deep}{{1}{1}{section.1}}}
\@writefile{brf}{\backcite{lu2014rapid}{{1}{1}{section.1}}}
\citation{lu2007survey}
\citation{schmidhuber2015deep}
\citation{yilmaz2006object}
\citation{datta2006studying}
\citation{ke2006design}
\citation{luo2008photo}
\citation{obrador2012towards}
\citation{dhar2011high}
\citation{joshi2011aesthetics}
\citation{san2012leveraging}
\citation{aydin2015automated}
\citation{murray2012ava}
\citation{lu2014rapid}
\citation{lu2015deep}
\citation{kong2016photo}
\citation{mai2016composition}
\citation{krizhevsky2012imagenet}
\citation{simonyan2014very}
\citation{girshick2015fast}
\citation{ren2015faster}
\citation{noh2015learning}
\citation{karpathy2015deep}
\citation{xu2015show}
\citation{antol2015vqa}
\citation{huang2016densely}
\citation{he2016deep}
\citation{he2016deep}
\citation{huang2016densely}
\citation{lu2015deep}
\citation{lu2014rapid}
\citation{lu2014rapid}
\citation{lu2015deep}
\citation{lu2014rapid}
\citation{lu2015deep}
\@writefile{toc}{\contentsline {section}{\numberline {2}\hskip -1em.\nobreakspace  {}Related Work}{2}{section.2}}
\newlabel{sec:reltd}{{2}{2}{\hskip -1em.~Related Work}{section.2}{}}
\@writefile{brf}{\backcite{lu2007survey,schmidhuber2015deep}{{2}{2}{section.2}}}
\@writefile{brf}{\backcite{yilmaz2006object}{{2}{2}{section.2}}}
\@writefile{brf}{\backcite{datta2006studying,ke2006design,luo2008photo}{{2}{2}{section.2}}}
\@writefile{brf}{\backcite{ obrador2012towards,dhar2011high,joshi2011aesthetics,san2012leveraging}{{2}{2}{section.2}}}
\@writefile{brf}{\backcite{aydin2015automated}{{2}{2}{section.2}}}
\@writefile{brf}{\backcite{murray2012ava}{{2}{2}{section.2}}}
\@writefile{brf}{\backcite{lu2014rapid}{{2}{2}{section.2}}}
\@writefile{brf}{\backcite{lu2015deep}{{2}{2}{section.2}}}
\@writefile{brf}{\backcite{kong2016photo}{{2}{2}{section.2}}}
\@writefile{brf}{\backcite{mai2016composition}{{2}{2}{section.2}}}
\@writefile{brf}{\backcite{krizhevsky2012imagenet,simonyan2014very}{{2}{2}{section.2}}}
\@writefile{brf}{\backcite{girshick2015fast,ren2015faster}{{2}{2}{section.2}}}
\@writefile{brf}{\backcite{noh2015learning}{{2}{2}{section.2}}}
\@writefile{brf}{\backcite{karpathy2015deep,xu2015show,antol2015vqa}{{2}{2}{section.2}}}
\@writefile{brf}{\backcite{huang2016densely,he2016deep}{{2}{2}{section.2}}}
\@writefile{brf}{\backcite{he2016deep}{{2}{2}{section.2}}}
\@writefile{brf}{\backcite{huang2016densely}{{2}{2}{section.2}}}
\@writefile{brf}{\backcite{lu2015deep,lu2014rapid}{{2}{2}{section.2}}}
\@writefile{brf}{\backcite{lu2014rapid}{{2}{2}{section.2}}}
\@writefile{brf}{\backcite{lu2015deep}{{2}{2}{section.2}}}
\@writefile{brf}{\backcite{lu2014rapid,lu2015deep}{{2}{2}{section.2}}}
\@writefile{toc}{\contentsline {section}{\numberline {3}\hskip -1em.\nobreakspace  {}Architecture}{2}{section.3}}
\citation{lu2014rapid}
\citation{lu2015deep}
\citation{lu2014rapid}
\citation{lu2015deep}
\citation{lu2014rapid}
\citation{lu2015deep}
\newlabel{Fig:ExampleImages}{{1}{3}{\hskip -1em.~Introduction}{section.1}{}}
\@writefile{lof}{\contentsline {figure}{\numberline {1}{\ignorespaces Example images from the AVA dataset corresponding to 14 different styles. (L-R) \textbf  {Row 1 : } Complementary Colors, Duotones, HDR, Image Grain, Light On White, Long Exposure, Macro. \textbf  { Row 2 : } Motion Blur, Negative Image, Rule of Thirds, Shallow DOF, Silhouettes, Soft Focus, Vanishing Point}}{3}{figure.1}}
\newlabel{sec:arch}{{3}{3}{\hskip -1em.~Architecture}{section.3}{}}
\@writefile{toc}{\contentsline {subsection}{\numberline {3.1}\hskip -1em.\nobreakspace  {}CNN}{3}{subsection.3.1}}
\@writefile{toc}{\contentsline {subsection}{\numberline {3.2}\hskip -1em.\nobreakspace  {}Data Augmentation}{3}{subsection.3.2}}
\newlabel{sec:archDataAug}{{3.2}{3}{\hskip -1em.~Data Augmentation}{subsection.3.2}{}}
\@writefile{brf}{\backcite{lu2014rapid}{{3}{3.2}{subsection.3.2}}}
\@writefile{brf}{\backcite{lu2015deep}{{3}{3.2}{subsection.3.2}}}
\@writefile{toc}{\contentsline {section}{\numberline {4}\hskip -1em.\nobreakspace  {}Dataset}{3}{section.4}}
\newlabel{sec:dataset}{{4}{3}{\hskip -1em.~Dataset}{section.4}{}}
\@writefile{toc}{\contentsline {section}{\numberline {5}\hskip -1em.\nobreakspace  {}Experiments}{3}{section.5}}
\newlabel{sec:results}{{5}{3}{\hskip -1em.~Experiments}{section.5}{}}
\@writefile{toc}{\contentsline {subsection}{\numberline {5.1}\hskip -1em.\nobreakspace  {}Style Classification}{3}{subsection.5.1}}
\@writefile{brf}{\backcite{lu2014rapid,lu2015deep}{{3}{5.1}{subsection.5.1}}}
\newlabel{sec:ResStyleClass}{{5.1}{3}{\hskip -1em.~Style Classification}{subsection.5.1}{}}
\@writefile{toc}{\contentsline {subsubsection}{\numberline {5.1.1}Best Data-Augmentation}{3}{subsubsection.5.1.1}}
\@writefile{brf}{\backcite{lu2014rapid,lu2015deep}{{3}{5.1.1}{subsubsection.5.1.1}}}
\@writefile{lof}{\contentsline {figure}{\numberline {2}{\ignorespaces CNN Architecture}}{4}{figure.2}}
\newlabel{fig:short}{{2}{4}{CNN Architecture}{figure.2}{}}
\@writefile{toc}{\contentsline {subsubsection}{\numberline {5.1.2}Class-wise Precision Scores }{4}{subsubsection.5.1.2}}
\@writefile{toc}{\contentsline {subsubsection}{\numberline {5.1.3}Overfitting}{4}{subsubsection.5.1.3}}
\@writefile{lof}{\contentsline {figure}{\numberline {3}{\ignorespaces \textbf  {Precision scores for Rule of Thirds for 25 augmentation combinations :} There are 25 bins along $x$-axis, each one corresponding to an attribute in Table\nobreakspace  {}\ref  {tab:allAug}, in order. The $y$ axis corresponds to the precision scores. The blue coloured bin is the bin with max score. In this figure, we observe that the $T_w-T_w$ combination works best for Rule of Thirds, which supports the intuition that global properties are preserved in warping. }}{4}{figure.3}}
\newlabel{fig:classWisePrecision}{{3}{4}{\textbf {Precision scores for Rule of Thirds for 25 augmentation combinations :} There are 25 bins along $x$-axis, each one corresponding to an attribute in Table~\ref {tab:allAug}, in order. The $y$ axis corresponds to the precision scores. The blue coloured bin is the bin with max score. In this figure, we observe that the $T_w-T_w$ combination works best for Rule of Thirds, which supports the intuition that global properties are preserved in warping}{figure.3}{}}
\@writefile{lot}{\contentsline {table}{\numberline {3}{\ignorespaces \textbf  {Per Class Precision Score for 25 augmentation strategies :} The first $2$ rows correspond to the style attributes and the numebr of samples available for training the CNN. The following $25$ rows are divided into $5$ blocks corresponding to the five augmentation strategies in the same order as in Table\nobreakspace  {}\ref  {tab:allAug}. We observe that the precision scores for HDR, Motion Blur, Rule of Thirds, Soft Focus are lower in comparison to other attributes. We argue that the poor performance of HDR, Motion Blur and Soft Focus could be a result of less number of samples available for training.}}{5}{table.3}}
\newlabel{ref:PerClassPrecision}{{3}{5}{\textbf {Per Class Precision Score for 25 augmentation strategies :} The first $2$ rows correspond to the style attributes and the numebr of samples available for training the CNN. The following $25$ rows are divided into $5$ blocks corresponding to the five augmentation strategies in the same order as in Table~\ref {tab:allAug}. We observe that the precision scores for HDR, Motion Blur, Rule of Thirds, Soft Focus are lower in comparison to other attributes. We argue that the poor performance of HDR, Motion Blur and Soft Focus could be a result of less number of samples available for training}{table.3}{}}
\@writefile{toc}{\contentsline {subsection}{\numberline {5.2}\hskip -1em.\nobreakspace  {}Quality Prediction}{5}{subsection.5.2}}
\newlabel{sec:ResQualPred}{{5.2}{5}{\hskip -1em.~Quality Prediction}{subsection.5.2}{}}
\@writefile{toc}{\contentsline {section}{\numberline {6}\hskip -1em.\nobreakspace  {}Applications}{5}{section.6}}
\@writefile{toc}{\contentsline {section}{\numberline {7}\hskip -1em.\nobreakspace  {}Conclusion}{5}{section.7}}
\bibstyle{ieee}
\bibdata{egbib}
\bibcite{antol2015vqa}{1}
\bibcite{aydin2015automated}{2}
\bibcite{beardsley1981aesthetics}{3}
\bibcite{datta2006studying}{4}
\bibcite{deng2009imagenet}{5}
\bibcite{dhar2011high}{6}
\bibcite{girshick2015fast}{7}
\bibcite{he2016deep}{8}
\bibcite{huang2016densely}{9}
\bibcite{joshi2011aesthetics}{10}
\bibcite{karpathy2015deep}{11}
\bibcite{ke2006design}{12}
\bibcite{kong2016photo}{13}
\bibcite{krizhevsky2012imagenet}{14}
\@writefile{lof}{\contentsline {figure}{\numberline {4}{\ignorespaces \textbf  {Class-Wise Precision scores for $T_w$, $T_{rc}$ and $T_{rnc}$ :} The $x$-axis correspond to 14 attributes.Each attribute has three bins corresponding to the precision scores for three augmentations. The comparison shows that $T_w$ performs worse and $T_{rnc}$ performs better than $T_{rc}$, in most cases. Only in the two global attributes, Rule of Thirds and Vanishing Lines, $T_w$ performs better, which is consistent with our intuitive assumption. }}{6}{figure.4}}
\newlabel{fig:overfitting}{{4}{6}{\textbf {Class-Wise Precision scores for $T_w$, $T_{rc}$ and $T_{rnc}$ :} The $x$-axis correspond to 14 attributes.Each attribute has three bins corresponding to the precision scores for three augmentations. The comparison shows that $T_w$ performs worse and $T_{rnc}$ performs better than $T_{rc}$, in most cases. Only in the two global attributes, Rule of Thirds and Vanishing Lines, $T_w$ performs better, which is consistent with our intuitive assumption}{figure.4}{}}
\@writefile{lof}{\contentsline {figure}{\numberline {5}{\ignorespaces Applications }}{7}{figure.5}}
\newlabel{fig:app}{{5}{7}{Applications}{figure.5}{}}
\bibcite{lu2007survey}{15}
\bibcite{lu2014rapid}{16}
\bibcite{lu2015deep}{17}
\bibcite{luo2008photo}{18}
\bibcite{mai2016composition}{19}
\bibcite{murray2012ava}{20}
\bibcite{noh2015learning}{21}
\bibcite{obrador2012towards}{22}
\bibcite{ren2015faster}{23}
\bibcite{san2012leveraging}{24}
\bibcite{schmidhuber2015deep}{25}
\bibcite{simonyan2014very}{26}
\bibcite{xu2015show}{27}
\bibcite{yilmaz2006object}{28}
\bibcite{yosinski2014transferable}{29}
\@writefile{lot}{\contentsline {table}{\numberline {1}{\ignorespaces \textbf  {Style Classification : Comparison of DenseNet161 having different augmentation strategies with the state of the art}}}{8}{table.1}}
\newlabel{tab:allAug}{{1}{8}{\textbf {Style Classification : Comparison of DenseNet161 having different augmentation strategies with the state of the art}}{table.1}{}}
\@writefile{lot}{\contentsline {table}{\numberline {2}{\ignorespaces \textbf  {Style Classification : Different Networks with the best augmentation}}}{8}{table.2}}
\newlabel{tab:allNetStyle}{{2}{8}{\textbf {Style Classification : Different Networks with the best augmentation}}{table.2}{}}
\newlabel{tab:allNetQuality}{{5.2}{8}{\hskip -1em.~Quality Prediction}{subsection.5.2}{}}
\@writefile{lot}{\contentsline {table}{\numberline {4}{\ignorespaces \textbf  {Quality Prediction : Different Networks with the best augmentation}}}{8}{table.4}}
