This is BibTeX, Version 0.99d (TeX Live 2013/Debian)
Capacity: max_strings=35307, hash_size=35307, hash_prime=30011
The top-level auxiliary file: StyleTaggingCNN_2.aux
The style file: ieee.bst
Database file #1: egbib.bib
Warning--empty journal in griffin2007caltech
You've used 35 entries,
            2120 wiz_defined-function locations,
            684 strings with 9972 characters,
and the built_in function-call counts, 15977 in all, are:
= -- 1612
> -- 747
< -- 24
+ -- 296
- -- 258
* -- 1059
:= -- 2401
add.period$ -- 113
call.type$ -- 35
change.case$ -- 233
chr.to.int$ -- 0
cite$ -- 36
duplicate$ -- 668
empty$ -- 1225
format.name$ -- 258
if$ -- 3529
int.to.chr$ -- 0
int.to.str$ -- 35
missing$ -- 35
newline$ -- 177
num.names$ -- 70
pop$ -- 299
preamble$ -- 1
purify$ -- 199
quote$ -- 0
skip$ -- 552
stack$ -- 0
substring$ -- 1097
swap$ -- 280
text.length$ -- 24
text.prefix$ -- 0
top$ -- 0
type$ -- 138
warning$ -- 1
while$ -- 150
width$ -- 37
write$ -- 388
(There was 1 warning)
